orf	cind
YOL161C	3
YJR107W	8
YPL270W	48
YGR256W	54
YDR518W	49
YDR233C	62
YHR098C	30
YFR029W	25
YPL198W	23
YDL220C	45
YDR001C	28
YLR394W	60
YIL176C	3
YCR079W	64
YAL061W	64
YPL208W	21
YPL078C	11
YNL283C	16
YAL069W	40
YLL062C	29
YOR324C	61
YDL217C	0
YER170W	58
YDR378C	30
YOR192C	7
YBR038W	2
YJR068W	63
YLL019C	46
YLR275W	68
YMR146C	23
YNL005C	13
YJL208C	56
YHR112C	14
YCR006C	61
YCR034W	59
YBR168W	64
YGL233W	41
YGR010W	22
YOR378W	66
YER022W	66
YER033C	35
YDL067C	11
YKL168C	48
YNR022C	20
YDR223W	54
YPR102C	59
YFL024C	40
YDR359C	5
YJL172W	8
YDR523C	24
YMR007W	22
YML111W	70
YNL304W	49
YLR101C	17
YKR001C	44
YER184C	25
YMR280C	46
YLR437C	16
YMR316W	71
YDL020C	54
YDR291W	10
YNR034W-A	53
YGL166W	61
YCR016W	34
YOR298C-A	42
YDL044C	0
YLL043W	22
YNL173C	48
YKR027W	33
YFR003C	41
YOL078W	37
YFR053C	67
YPR114W	16
YGR006W	67
YBR281C	66
YGR248W	28
YDR228C	2
YPR075C	22
YMR134W	17
YNR010W	37
YCR027C	68
YBR131W	26
YKL035W	41
YNL339C	64
YHR192W	44
YNL072W	21
YNL004W	65
YJR009C	51
YKL094W	48
YNL309W	1
YER122C	66
YGL054C	1
YLR079W	67
YAL002W	28
YBR007C	18
YPR183W	52
YGL184C	29
YBR263W	62
YNR008W	43
YOR355W	40
YLR460C	25
YPL127C	8
YER015W	46
YMR009W	35
YDL092W	68
YPL082C	40
YFR022W	27
YNL337W	40
YJR050W	10
YFL031W	5
YMR235C	19
YOR003W	46
YDR411C	41
YPR152C	70
YBR269C	64
YLR250W	35
YML075C	12
YML077W	68
YKL225W	40
YCR024C-A	62
YBL035C	21
YGR207C	8
YFL062W	41
YDL172C	31
YPL124W	21
YDR151C	37
YOL077W-A	13
YGR012W	30
YHR166C	26
YFL003C	55
YMR205C	51
YNL176C	25
YAL001C	28
YNL012W	53
YDR002W	70
YJR151C	46
YPL050C	19
YNL129W	18
YHR052W	34
YKR002W	36
YPR109W	35
YKL067W	64
YBR274W	73
YOL153C	28
YLR188W	17
YIL049W	33
YLL004W	23
YLL010C	70
YFL057C	54
YBL003C	6
YNL243W	8
YFL004W	33
YLR075W	52
YMR158W	20
YNL063W	61
YLR168C	31
YER013W	37
YNL126W	30
YOR050C	24
YLR026C	19
YNL048W	36
YDL022W	28
YNL069C	59
YMR148W	58
YMR202W	17
YMR073C	35
YJR101W	20
YLR208W	62
YJR036C	64
YDR032C	53
YER007C-A	23
YLR459W	16
YBL004W	56
YDL111C	23
YPL076W	70
YIL075C	42
YMR149W	30
YIL059C	27
YBR118W	67
YOR331C	63
YER012W	42
YER052C	72
YIL092W	65
YLR410W	66
YFR041C	6
YJR115W	47
YNL062C	23
YDR471W	59
YBR167C	68
YBR231C	43
YPL193W	10
YAL017W	48
YML014W	56
YKL018W	63
YIL100W	9
YER114C	10
YKR049C	53
YHR141C	74
YMR243C	66
YHR011W	11
YLL042C	5
YLR197W	23
YHR057C	67
YNL021W	68
YPL051W	16
YBR110W	44
YHR003C	23
YDR082W	27
YDR260C	26
YAL011W	10
YFR024C-A	14
YIL079C	34
YDL123W	22
YKL071W	7
YAL044W-A	7
YNL247W	19
YIL020C	66
YGR130C	48
YPL007C	6
YPL268W	5
YCR104W	3
YBL020W	63
YGR157W	44
YJR055W	56
YDR347W	20
YIL144W	73
YLR126C	49
YGR088W	28
YDL231C	71
YKR004C	15
YER173W	2
YKL195W	11
YKR016W	11
YER152C	48
YAL042W	6
YNL287W	6
YMR022W	15
YDR242W	38
YML059C	2
YHR024C	0
YDR288W	55
YGR113W	49
YGL225W	19
YOL101C	47
YER007W	10
YNL098C	67
YCR018C	47
YML109W	33
YDR156W	56
YGR253C	42
YDR009W	67
YBR041W	6
YBR179C	22
YGL043W	16
YKR055W	12
YOR110W	15
YOR156C	60
YOR145C	56
YPL017C	54
YER109C	16
YOR226C	73
YPR077C	71
YMR072W	14
YPR084W	60
YKL217W	46
YKR037C	1
YNL032W	63
YLR293C	23
YBR222C	46
YGL143C	13
YPL037C	62
YGR085C	59
YOR295W	68
YPR133W-A	0
YIL103W	34
YOR124C	14
YLR125W	35
YGR023W	46
YGR014W	8
YER069W	4
YKL099C	34
YKL123W	54
YCR020C	71
YHR023W	26
YOR312C	59
YBL048W	53
YBL006C	16
YDL150W	34
YGL238W	66
YPL048W	14
Q0075	60
YDR175C	20
YLR363C	26
YDR532C	45
YLR065C	68
YGL229C	41
YNR058W	25
YHR042W	40
YJR032W	16
YBR237W	27
YJL028W	40
YOR256C	64
YEL024W	11
YGR104C	73
YKL072W	63
YMR097C	36
YIL140W	49
YJL099W	61
YAL024C	66
YHL040C	10
YDR382W	74
YNR020C	20
YDR054C	55
YJR103W	28
YOL095C	66
YIL024C	46
YGR080W	14
YHR208W	66
YPR074C	0
YIL119C	55
YBR241C	53
YKR008W	66
YBR244W	43
YFL009W	24
YML118W	53
YFL006W	67
YLR290C	48
YNL128W	7
YDL156W	1
YDR119W	63
YHR066W	34
YJR145C	59
YJL034W	32
YNL245C	55
YKL173W	10
YKL191W	56
YGR007W	16
YDL136W	59
YDR509W	40
YMR316C-B	35
YOR126C	22
YKL012W	25
YLR189C	48
YKL220C	27
YNR059W	17
YFL044C	53
YPR120C	21
YPR151C	46
YIL009C-A	50
YCR096C	35
YER079W	53
YMR054W	8
YIL076W	15
YDR388W	14
YDR389W	40
YOR198C	0
YDR286C	22
YKR094C	59
YMR119W-A	41
YNL153C	19
YHR047C	31
YML009C	20
YCL061C	21
YDR045C	68
YDR047W	69
YCR019W	10
YGL237C	67
YOR188W	19
YML127W	2
YHR119W	66
YJL110C	37
YHR157W	7
YDR506C	64
YOR291W	36
YPL281C	53
YHR142W	43
YIL131C	66
YNL259C	47
YIL050W	64
YBR208C	39
YOR025W	2
YDL112W	23
YPR118W	30
YOR281C	19
YOR371C	45
YPL279C	19
YGR054W	70
YPL167C	54
YDR100W	48
YPR098C	53
YDR176W	6
YDR318W	44
YER036C	23
YKR076W	53
YML129C	13
YOL055C	38
YJR096W	64
YMR065W	1
YMR170C	53
YDR125C	61
YBR285W	28
YDR249C	37
YBR021W	68
YKR070W	14
YMR199W	52
YIL063C	44
YEL025C	12
YKR061W	71
YLR280C	46
YLR049C	33
YDR422C	27
YLR342W	37
YDR379W	22
YIR019C	2
YJR100C	46
YLR257W	41
YKL167C	20
YMR061W	66
YKL213C	14
YMR300C	37
YDL200C	7
YBR280C	64
YOR162C	46
YCR026C	27
YLR011W	44
YDR072C	5
YPL161C	12
YOR189W	44
YDR138W	63
YKL047W	63
YPL004C	64
YPR180W	25
YJR131W	22
YBR154C	23
YDR545W	64
YGR244C	46
YAL010C	22
YDR425W	48
YLR253W	31
YLR064W	73
YPL074W	45
YNL264C	1
YAL063C	65
YDR476C	8
YCR069W	14
YIL039W	26
YGR257C	31
YKL008C	16
YDL071C	25
YFL056C	35
YKL137W	13
YLR005W	61
YBR074W	63
YMR063W	45
YMR024W	20
YDR029W	9
YGL135W	59
YFL047W	63
YGR209C	53
YML050W	13
YMR130W	1
Q0050	60
YMR322C	53
YLR045C	33
YDR437W	71
YPL210C	19
YDL107W	46
YNL135C	67
YKL058W	47
YMR153C-A	22
YJR117W	12
YJL193W	19
YNL281W	66
YLR251W	28
YOL102C	33
YHR060W	43
YCR052W	70
YOL010W	34
YKR088C	44
YLL041C	11
YDR310C	66
YBR264C	32
YOL009C	53
YKL004W	23
YGL213C	1
YPR037C	42
YLR218C	14
YDR531W	44
YEL057C	46
YHL025W	47
YBR114W	55
YOR131C	12
YLR421C	15
YLL035W	23
YCR053W	16
YAL034C	54
YIL112W	61
YDR502C	16
YGL104C	48
YLR161W	61
YPL070W	22
YOR390W	19
YHL022C	52
YML046W	23
YKL130C	30
YDR179C	18
YLL018C-A	60
YNL073W	11
YOR067C	66
YHL033C	59
YKL039W	38
YGR185C	19
YEL061C	1
YPL240C	14
YDR067C	35
YLR104W	16
YER087W	11
YIL098C	13
YBR254C	16
YJL073W	19
YNL261W	66
YMR183C	33
YGR229C	23
YGR233C	24
YMR027W	48
YIR032C	50
YDR068W	14
YDR204W	64
YOR347C	8
YFR044C	14
YEL004W	54
YBR123C	33
YMR238W	8
YDR349C	65
YMR093W	34
YMR070W	16
YDR206W	24
YML036W	16
YGL226C-A	19
YNL108C	16
YGR262C	59
YNL218W	33
YGR037C	67
YOL097C	23
YBR268W	20
YDR487C	4
YER063W	14
YMR252C	41
YER066W	22
YFR031C-A	59
YMR017W	46
YGR184C	14
YER131W	59
YGR003W	37
YOR026W	16
YKL146W	35
YOR292C	28
YDL154W	27
YDR044W	1
YIL042C	64
YHR016C	48
YJR084W	39
YDL098C	68
YML053C	5
YOL091W	71
YLR180W	16
YLR359W	71
YKR098C	41
YNL332W	53
YJR110W	41
YCL045C	16
YGL208W	46
YNL102W	21
YPR192W	67
YHR061C	66
YJR066W	12
YBR067C	67
YER043C	0
YJL081C	5
YBL104C	26
YCR031C	59
YKL032C	63
YPL154C	53
YKL198C	43
YKR024C	56
YMR185W	24
YCR082W	67
YGR032W	46
YIL101C	28
YCL030C	72
YER009W	59
YJL127W-A	9
YML065W	66
YGR024C	73
YHL004W	20
YHR053C	67
YOR171C	73
YKR059W	52
YER020W	64
YML093W	34
YCR020C-A	37
YKR072C	63
YIL159W	40
YDR511W	11
YNL122C	13
YBR056W	28
YCL038C	54
YHR069C	56
YNL111C	40
YER153C	51
YNR054C	56
YBR066C	17
YOL068C	24
YML005W	37
YGR238C	1
YGR009C	31
YML091C	11
YAL020C	5
YML032C	1
YKL010C	54
YJR075W	16
YOR229W	5
YDR294C	14
YPL183W-A	13
YCR059C	70
YGL026C	4
YNR047W	61
YBR006W	14
YGL164C	35
YHR050W	31
YLR067C	10
YNL169C	18
YKL041W	25
YMR288W	63
YKL107W	53
YBR184W	15
YGL031C	59
YDR329C	48
YOR060C	55
YKR064W	26
YNL222W	30
YBL049W	53
YDR542W	3
YLR235C	47
YLR254C	46
YMR139W	48
YER080W	48
YPL023C	39
YPL269W	39
YIL157C	11
YLR187W	24
YLR467W	64
YGL224C	72
YBR139W	48
YGR063C	68
YPL207W	56
YKL212W	16
YGR264C	19
YGL090W	7
YJR090C	73
YLR149C	53
YHR131C	27
YJL012C-A	19
YCR081W	27
YGR251W	70
YCR046C	20
YGR179C	33
YMR307W	52
YOL104C	5
YMR298W	43
YDR512C	53
YPL175W	37
YBR257W	70
YKL084W	39
YBL089W	50
YDR210W	37
YKL166C	23
YHR073W	42
YKL207W	50
YDR472W	23
YPL148C	46
YDR031W	48
YNL327W	12
YGL128C	41
YLR001C	64
YDR483W	71
YPL239W	56
YCR100C	38
YDL124W	53
YPR012W	31
YBR275C	21
YIR042C	38
YBR053C	64
YLR401C	56
YBR147W	46
YBR197C	10
YBR089C-A	14
YDL059C	50
YOR279C	18
YDL160C	63
YNL139C	24
YOR092W	16
YBR265W	62
YOR001W	56
YLR295C	13
YNL075W	34
YNL212W	41
YOR159C	68
YPR001W	46
YEL019C	55
YPL172C	13
YPL131W	74
YJL042W	28
YDL141W	30
YDR429C	23
YKL109W	58
YDR141C	41
YLR255C	73
YNL143C	60
YML021C	21
YOL129W	14
YOR128C	7
YKL001C	29
YDR375C	13
YOL105C	5
YKL145W	42
YDL215C	46
YLR297W	67
YPR095C	54
YGL103W	74
YLR413W	56
YLR409C	34
YMR041C	64
YPR045C	27
YMR292W	1
YCR028C	10
YNL030W	6
YHR171W	28
YIR012W	34
YIL023C	7
YGL084C	41
YOR224C	23
YDL102W	66
Q0297	60
YCL057W	14
YOR330C	12
YBR122C	13
YMR010W	37
YEL017C-A	73
YPL258C	27
YDR357C	67
YNR009W	30
YOR047C	66
YPL126W	34
YOL073C	54
YIL072W	38
YJR104C	64
YNR013C	37
YKR075C	5
YOR142W	11
YGL142C	12
YER046W	12
YDR395W	23
YGR058W	70
YGL122C	70
YCR041W	68
YNL334C	35
YAL055W	28
YLR273C	67
YDL024C	53
YBR216C	47
YDR094W	19
YJL184W	61
YCL010C	43
YOL128C	18
YER055C	16
YMR304C-A	17
YDR427W	32
YNL165W	12
YEL040W	16
YOR196C	45
YPR147C	44
YBL007C	41
YPL196W	48
YLR243W	34
YPR019W	63
YAL048C	60
YPL203W	48
YDR328C	64
YMR289W	14
YGR234W	0
YPL139C	5
YFL042C	64
YPR189W	66
YPL236C	64
YOR205C	70
YHR193C	52
YMR015C	17
YLR429W	44
YGR279C	0
YDR352W	18
YOL004W	41
YPR150W	38
YGL223C	39
YML116W	72
YGL124C	35
YML078W	11
YHL030W	14
YGR146C	58
YFR019W	41
YJR004C	33
YBR166C	72
YGL147C	59
YML060W	23
YKR063C	70
YGR041W	1
YBR238C	23
YIL122W	60
YDR513W	14
YIL142W	19
YHR195W	54
YNL238W	66
YBR296C	58
YML013W	22
YER038C	10
YNL306W	11
YBR229C	14
YFL025C	63
YLL061W	29
YER053C-A	28
YML115C	62
YIL005W	35
YDR247W	67
YGR180C	67
YAR018C	2
YIL090W	24
YGL011C	42
YPL253C	26
YLL052C	24
YGR217W	26
YML018C	23
YBL086C	41
YJL018W	63
YAL060W	48
YCR107W	61
YFL065C	18
YMR294W	45
YDR101C	34
YNL180C	67
YLL034C	34
YER035W	53
YNL310C	49
YER074W-A	73
YDL061C	59
YIR037W	53
YDR005C	54
YLR059C	68
YLR160C	22
YNL237W	53
YNL280C	67
YPL177C	61
YOR349W	27
YJR085C	53
YDL237W	38
YDR314C	35
YGL168W	68
YIL110W	34
YPR175W	19
YMR268C	24
YKL204W	45
YCR014C	61
YHR102W	71
YOR104W	71
YGR154C	38
YLR204W	13
YGL072C	37
YDL074C	66
YGR013W	65
YNL059C	6
YIR020C	36
YEL026W	23
YDR050C	51
YBR247C	34
YER065C	46
YBL021C	60
YJL080C	30
YNL031C	32
YDR362C	1
YJL196C	12
YNL096C	59
YPL158C	39
YJL177W	59
YLR042C	52
YFL010W-A	26
YGR173W	23
YJR047C	40
YKL216W	19
YLR136C	8
YOR368W	49
YIR036C	53
YNR015W	56
YNL274C	28
YOL030W	71
YJR135W-A	31
YMR301C	30
YBR248C	72
YML061C	21
YER071C	65
YER183C	37
YKL059C	63
YNL200C	53
YIR015W	35
YLR327C	46
YBL002W	1
YER177W	51
YOR293W	59
YIR007W	48
YHL019C	41
YDR057W	67
YHL001W	59
YKL208W	46
YLR205C	46
YGL216W	26
YLR028C	14
YNL042W	70
YBR115C	72
YDL078C	64
YLL031C	6
YOR363C	64
YEL070W	46
YOR096W	59
YDR188W	23
YPL104W	11
YDR363W	27
YMR212C	19
YIL166C	46
YLR264W	19
YML102W	16
YKL154W	16
YOR112W	1
YDR037W	70
YDR428C	63
YEL056W	15
YBR121C	19
YOR354C	13
YJR062C	14
YDR369C	22
YHR090C	60
YCR091W	53
YGL178W	37
YHR004C	48
YMR259C	56
YOR350C	7
YDR195W	63
YNL312W	49
YNL154C	66
YGR062C	58
YPL026C	10
YCR047C	56
YNL043C	26
YCL011C	66
YBR176W	69
YBR043C	8
YGL172W	66
YLR135W	65
YJL153C	8
YOR191W	7
YGL061C	21
YLR062C	19
YOR254C	19
YCR008W	63
YJL050W	34
YOL149W	30
YHL050C	35
YML009C-A	40
YHR197W	34
YKL034W	48
YOR120W	46
YGR197C	61
YOL071W	64
YLR165C	67
YEL038W	65
YFR018C	25
YOR185C	53
YGR178C	36
YER017C	36
YGR296W	64
YHL014C	58
YJL057C	28
YDL093W	21
YHR001W-A	11
YGL110C	73
YPL119C	64
YGR093W	56
YGL029W	56
YJR133W	25
YBR212W	64
YOR321W	15
YKL042W	1
YLR422W	41
YKL122C	19
YGR132C	11
YGL062W	11
YOL052C-A	53
YFR047C	64
YMR271C	53
YDR251W	41
YKL031W	25
YOL020W	70
YLR240W	41
YAL025C	34
YKL091C	48
YDR376W	14
YLR038C	11
YPL250C	4
YOR009W	40
YOR248W	39
YLR092W	29
YLL013C	58
YBL113C	64
YOL066C	24
YCL004W	22
YGL248W	38
YBL075C	54
YDR014W	45
YLR044C	51
YKL026C	53
YDR023W	19
YFR049W	11
YBL042C	56
YKR104W	73
YGR243W	67
YOR204W	23
YGR281W	38
YNL039W	1
YBR292C	62
YGL253W	31
YER039C	28
YLR259C	11
YBR107C	50
YEL076C	1
YGL212W	25
YIL008W	68
YOR014W	61
YJL207C	66
YOL164W	4
YDL097C	42
YBL060W	63
YLR071C	24
YDL077C	12
YJR010C-A	30
YDR488C	43
YML086C	36
YNR077C	40
YPL244C	19
YGL154C	61
YGR016W	35
YBL093C	70
YBR079C	23
YER157W	18
YDL187C	40
YCL031C	34
YLR210W	19
YGR271C-A	34
YDL137W	14
YLR396C	61
YMR232W	2
YPL221W	71
YJR140C	26
YIL108W	28
YLL020C	46
YPL256C	1
YJR042W	66
YPL020C	26
YDL232W	66
YLR103C	21
YER027C	6
YLR219W	54
YOR066W	73
YKL127W	6
YJL093C	7
YGR200C	56
YKR102W	47
YGL083W	30
YKL052C	69
YMR293C	46
YDR211W	70
YLR080W	64
YLR344W	59
YBL109W	40
Q0130	53
YCL018W	29
YNR046W	56
YBR171W	59
YJL157C	66
YIL149C	63
YPR088C	63
YPR141C	30
YGR133W	54
YPL068C	23
YLR148W	12
YKR099W	56
YOL083W	53
YLR035C	38
YGR028W	46
YNL249C	62
YDR268W	13
YKR057W	59
YMR286W	20
YBL010C	16
YDL042C	66
YDR256C	54
YMR241W	16
YJL163C	53
YBR124W	9
YOR065W	11
YDR015C	9
YDL149W	64
YCR092C	66
YMR080C	66
YOR167C	59
YDL052C	6
YMR189W	8
YBL068W	56
YKL050C	54
YMR287C	27
YNL137C	20
YAL035W	23
YMR052C-A	28
YPL019C	66
YGR055W	62
YGL067W	19
YML055W	52
YOR337W	37
YDR219C	57
YAL049C	64
YGR031W	58
YNL040W	25
YDR069C	28
YDR123C	23
YPL260W	28
YCR012W	51
YER061C	7
YLR032W	73
YMR048W	49
YAL038W	51
YCL057C-A	13
YNL208W	53
YPR006C	46
YDL005C	63
YGR079W	23
YFR038W	30
YPL187W	16
YIL129C	42
YPL036W	43
YAR019C	61
YDL234C	64
YIR004W	0
YOL063C	54
YMR105C	28
YOR002W	38
YDL057W	64
YKL162C	48
YOR073W	30
YJR072C	56
YGL040C	20
YOL157C	46
YKR062W	55
YLR146C	56
YPR200C	54
YGR196C	47
YAL007C	30
YJR031C	66
YML054C	46
YMR154C	22
YGL162W	24
YMR060C	36
YIR005W	25
YKL175W	25
YKR046C	53
YFR005C	70
YJL058C	70
YNL074C	18
YCL052C	41
YML028W	14
YPL042C	63
YGL181W	41
YBR057C	36
YFR025C	50
YHR132W-A	22
YNL236W	16
YML110C	14
YOL051W	47
YGL112C	66
YLR438C-A	19
YLR426W	18
YNR021W	59
YLR115W	69
YDR459C	37
YBR135W	66
YNR065C	8
YJR045C	11
YHR100C	37
YJR109C	4
YDR283C	25
YIL006W	11
YPR070W	24
YDL073W	66
YBR048W	59
YKL148C	11
YNR016C	67
YGR252W	2
YHL006C	7
YJL136C	59
YMR193C-A	9
YKL201C	60
YKR058W	64
YER147C	10
YOR282W	40
YDR028C	28
YBL034C	63
YOR075W	69
YHR214W-A	58
YNL158W	26
YIL094C	58
YER092W	71
YCR102C	8
YLR316C	23
YMR302C	48
YLR300W	8
YBL084C	60
YER101C	64
YAR075W	19
YGR045C	46
YOR113W	54
YJL047C	61
YHR021C	59
YLR382C	13
YHR212C	58
YPR094W	68
YIL045W	28
YGR076C	20
YIL087C	53
YJR094C	54
YER133W	57
YAL013W	10
YDL127W	19
YLL040C	48
YBR081C	39
YBR256C	38
YDL049C	46
YHR058C	70
YLR060W	19
YFR040W	58
YJR006W	39
YDR139C	70
YPR124W	58
YHR040W	56
YOR053W	5
YDR350C	53
YHR217C	66
YFL007W	47
YML123C	56
YLR266C	36
YOR173W	53
YHR161C	41
YPL142C	59
YDR214W	14
YPR040W	47
YNL055C	53
YOR296W	73
YKL161C	8
YKL053W	27
YML062C	6
YOR319W	70
YGL245W	6
YDR406W	64
YOR174W	68
YDL085W	53
YIL096C	56
YIL104C	23
YML130C	23
YGL255W	55
YPL010W	6
YPL229W	71
YLR131C	2
YDR266C	68
YOL070C	2
YGR141W	64
YOL120C	59
YKL136W	5
YOR245C	38
YNL010W	59
YDR485C	10
YDR231C	11
YMR234W	68
YDR322C-A	13
YPL066W	52
YDR109C	38
YCL025C	50
YIL132C	6
YIR021W	0
YNL118C	45
YHR085W	34
YNL290W	19
YDL028C	73
YKL055C	58
YBR223C	46
YER154W	55
YMR311C	48
YPL212C	23
YBR142W	34
YER144C	22
YNL167C	12
YOL076W	19
YIR028W	38
YGR002C	37
YOR210W	68
YLR268W	39
YMR013W-A	40
YMR098C	13
YDR058C	53
YOR042W	48
YEL059C-A	7
YBR069C	5
YDR433W	43
YGL086W	66
YDR338C	27
YGL048C	42
YMR207C	44
YHL045W	54
YGL012W	40
YDL039C	24
YDR224C	32
YBR189W	59
YDR129C	41
YOR063W	74
YGR211W	56
YMR164C	67
YGL222C	12
YKR090W	16
YHR043C	32
YJR128W	54
YOR013W	70
YLR272C	19
YAL051W	61
YEL071W	18
YHR076W	25
YDL204W	64
YDR041W	13
YIL126W	66
YLR364W	29
YNR036C	11
YIL016W	30
YNL133C	22
YMR026C	22
YDR020C	23
YNR050C	71
YNL049C	39
YKL128C	16
YNL240C	65
YOR273C	67
YKL186C	66
YLR054C	8
YBR213W	70
YMR049C	34
YMR165C	48
YJL024C	68
YGL221C	69
YMR020W	38
YER139C	22
YKR095W	12
YNL016W	1
YER074W	74
YKL139W	24
YOL108C	50
YOR119C	24
YKL125W	24
YEL074W	40
YBR091C	68
YNL066W	16
YLR119W	15
YHR153C	21
YLR167W	52
YDR305C	42
YGL150C	61
YJR119C	55
YDR439W	24
YML037C	1
YPL024W	60
YHR096C	53
YGR053C	64
YHR018C	4
YGL021W	2
YPR190C	34
YJR061W	22
YGL092W	19
YPL054W	46
YLL065W	40
YJR059W	41
YGR255C	14
YDL120W	31
YDR120C	56
YGL073W	28
YDR145W	5
YHR120W	23
YKL179C	32
YMR108W	0
YEL075C	18
YJL210W	54
YER087C-B	30
YMR173W	53
YCR084C	1
YMR036C	54
YFL061W	7
YFL064C	18
YKR085C	20
YPL003W	48
YOR285W	53
YDL188C	41
YDR061W	11
YNL234W	24
YHR026W	52
YLR337C	14
YJR005W	61
YJL046W	31
YGL256W	19
YHR054C	22
YIL057C	67
YGR019W	28
YDR208W	27
YIL117C	7
YGR270W	41
YKL209C	48
YPR131C	39
YDR178W	46
YJL179W	59
YJL117W	30
YOL126C	22
YGL116W	2
YLR398C	33
YNL289W	52
YKR053C	2
YLR120C	8
YJR112W	30
YKL069W	50
YMR194W	59
YDR148C	11
YOL054W	45
YBR217W	47
YDR011W	69
YJL198W	23
YGL163C	65
YJL121C	59
YJR155W	64
YMR239C	56
YJL013C	8
YKR011C	14
YLR423C	14
YOR052C	53
YJR053W	35
YKL002W	38
YMR193W	20
YEL002C	6
YBL014C	56
YIL113W	28
YDR140W	37
YEL028W	27
YIL167W	25
YBL030C	11
YGL228W	12
YHR154W	19
YER081W	2
YLR227C	37
YML072C	42
YER117W	59
YDR430C	11
YNL239W	14
YPL115C	16
YHR005C	66
YBL063W	33
YGR102C	54
YPR113W	16
YBR295W	7
YNL083W	60
YLL045C	59
YGR122W	33
YMR303C	67
YNR060W	63
YOR154W	24
YJR162C	40
YBR102C	45
YCR073W-A	48
YGL123W	52
YHL003C	6
YGR202C	0
YHR086W	41
YDL144C	53
YBL022C	42
YLR326W	61
YCL066W	68
YLR078C	62
YOL011W	24
YLR248W	28
YGL045W	7
YNL201C	56
YGR218W	63
YJL084C	27
YPL089C	71
YBR030W	23
YKL014C	34
YKL121W	28
YCR083W	53
YPL243W	19
YCR011C	48
YPL216W	73
YHR067W	50
YGR192C	51
YGL146C	46
YGL153W	22
YIL124W	48
YGR005C	5
YNR043W	17
YOL159C	38
YPL134C	46
YLR002C	34
YER050C	13
YEL037C	62
YDL045W-A	0
YDR147W	16
YOL094C	68
YDR202C	48
YLR025W	48
YGL161C	48
YJL004C	25
YGL047W	14
YGR271W	45
YLR455W	66
YLL056C	54
YLR447C	44
YOL086C	32
YMR227C	55
YHR132C	22
YKL222C	27
YNL172W	39
YBR206W	62
YBL112C	57
YML002W	54
YJL201W	37
YGL077C	18
YDL050C	56
YEL075W-A	40
YPR181C	30
YBR191W	59
YJL133W	23
YER178W	54
YIR033W	47
YDR383C	44
YER134C	44
YJL016W	54
YOR118W	42
YGL141W	14
YOR140W	24
YMR297W	53
YBR005W	7
YER030W	14
YHR156C	71
YOR311C	18
YBR014C	36
YML112W	16
YGL244W	66
YOR341W	34
YOR130C	72
YPR072W	26
YOR163W	14
YDL178W	31
YML019W	16
YJL199C	28
YPR174C	21
YJL171C	71
YHR019C	59
YDL128W	54
YOR290C	25
YOR370C	70
YIR034C	71
YGR004W	68
YCL021W-A	73
YIL136W	53
YEL011W	28
YBR129C	69
YPL231W	8
YHR124W	7
YOR166C	66
YBL064C	53
YMR217W	34
YPR125W	23
YDR435C	22
YFR014C	11
YNL278W	39
YOR087W	61
YDR465C	34
YLR225C	25
YLR141W	30
YNL291C	66
YPL218W	32
YBR025C	59
YER167W	25
YGL126W	52
YKR045C	24
YBL094C	2
YMR187C	24
YPL160W	19
YBL098W	11
YBL046W	16
YOR039W	30
YFR032C-A	59
YGL217C	30
YOL018C	42
YOR048C	24
YGL006W	64
YIR043C	48
YOR057W	42
YGR091W	24
YGR272C	34
YBR047W	46
YLR033W	63
YLR277C	66
YBL091C	44
YMR016C	70
YHR144C	19
YDR174W	16
YKR034W	50
YKL176C	55
YHR160C	53
YLR301W	33
YMR240C	37
YJL011C	68
YOR394W	3
YOR123C	0
YHL008C	67
YOR187W	13
YDR076W	50
YNL161W	8
YDR213W	40
YGR119C	19
YPR166C	20
YDL155W	66
YBL029C-A	67
YPL259C	63
YLR057W	24
Q0160	60
YGL144C	71
YMR318C	0
YJR033C	28
YPL092W	38
YBR022W	43
YBL077W	19
YER165W	19
YDR042C	16
YOL043C	7
YEL016C	43
YJR122W	11
YDR341C	23
YGR083C	23
YCR015C	25
YHR104W	28
YNL227C	70
YGR077C	67
YOL144W	56
YMR138W	63
YIR014W	64
YMR095C	7
YDR473C	61
YMR158C-A	38
YFR001W	56
YML042W	46
YOL081W	22
YGL179C	17
YKL119C	15
YER163C	25
YOR232W	0
YLR267W	46
YHR163W	17
YFL010C	25
YOR239W	19
YLL029W	28
YKL178C	62
YOL026C	42
YBL043W	46
YGR008C	28
YMR255W	71
YBR127C	51
YBR133C	66
YIL082W-A	61
YDR189W	30
YLR439W	31
YIL015W	55
YLR114C	1
YFR050C	42
YML043C	23
YIL088C	48
YJR097W	56
YBR146W	20
YOR364W	5
YHR206W	24
YIL017C	48
YNL335W	7
YLR372W	59
YPL113C	67
YLR419W	24
YGL076C	19
YER031C	6
YHL017W	29
YOR251C	60
YBL025W	45
YHR181W	44
YKR106W	7
YOL080C	34
YDR308C	63
YPL086C	56
YLR020C	23
YJL108C	37
YLR361C	27
YPR049C	22
YDL085C-A	26
YJL174W	37
YDR343C	13
YOL002C	71
YHR216W	63
YOL140W	37
YPR148C	48
YDR306C	54
YER003C	32
YMR067C	44
YMR111C	27
YDR371W	15
YJR118C	6
YKL138C	13
YFL017W-A	70
YPL194W	12
YBL018C	37
YMR019W	50
YML100W	28
YLR313C	21
YDR394W	42
YER151C	19
YJL052W	51
YLR375W	71
YNL251C	73
YIL056W	65
YPR060C	23
YGR116W	66
YKR097W	46
YNL164C	56
YDR253C	29
YGR125W	25
YPR003C	12
YIL148W	74
YGR039W	43
YLR172C	23
YKL025C	12
YEL006W	18
YDR524C	24
YPL195W	62
YDL047W	24
YIL123W	17
YPR021C	11
YML064C	63
YFL059W	46
YKR077W	43
YPL166W	28
YFR016C	28
YLL007C	69
YJL216C	5
YDR489W	68
YGR043C	53
YDR321W	19
YEL058W	25
YDR073W	5
YDL201W	34
YNL273W	21
YOR094W	16
YGL120C	34
YMR224C	61
YOR278W	22
YBR099C	5
YDL056W	57
YER137C	68
YER100W	25
YPL100W	48
YKR042W	55
YJL139C	65
YGR142W	42
YLR010C	67
YJL146W	22
YJL019W	63
YIL125W	11
YGR030C	0
YGR292W	13
YCR038C	47
YIL168W	25
YIL019W	56
YKL011C	57
YDR331W	19
YGR267C	50
YDR423C	46
YLR411W	58
YOL113W	35
YBL105C	45
YIL095W	37
YCL024W	21
YNL248C	34
YGL050W	19
YIL083C	36
YDL247W-A	69
YIL051C	38
YNL138W	14
YLR286C	35
YPR103W	42
YLR408C	41
YER096W	7
YGL139W	63
YNL265C	38
YER056C	70
YPL227C	19
YOR386W	28
YDL169C	53
YKL165C	21
YEL077C	64
YPL178W	68
YOR360C	70
YLR088W	33
YMR033W	19
YNL325C	54
YBL027W	59
YAL064W-B	60
YBR236C	37
YOR216C	30
YHR068W	23
YGR198W	19
YHR194W	48
YDL158C	30
YDR301W	39
YKL103C	28
YPR071W	70
YDR185C	5
YOR084W	67
YER145C	0
YOR169C	19
YOR298W	71
YNL041C	33
YLR055C	63
YER029C	68
YNR023W	66
YFR031C	49
YMR086W	14
YCL001W	15
YHR012W	44
YHL021C	28
YJL167W	42
YJR017C	61
YLR236C	25
YGL176C	24
YAL030W	14
YKL068W	23
YLR306W	69
YNR028W	30
YGR263C	8
YJL095W	21
YIL009W	63
YNL263C	1
YMR294W-A	55
YER112W	30
YKR036C	37
YKL033W	24
YPR146C	44
YPR173C	43
YOL048C	28
YDR170C	6
YHR095W	58
YIL150C	63
YOR236W	19
YPL170W	22
YLR220W	22
YAL040C	23
YLR360W	2
Q0080	47
YJL218W	33
YER132C	37
YBR071W	8
YPL071C	71
YNL090W	30
YJR019C	46
YNR072W	9
YPR017C	70
YJR008W	64
YCR089W	55
YBR086C	69
YDR261C	26
YER054C	28
YBR084C-A	59
YGL108C	43
YMR088C	50
YDR134C	8
YHL013C	56
YOL064C	72
YDR399W	56
YAL053W	71
YBR101C	36
YBL087C	59
YCL054W	34
YDL079C	67
YMR178W	15
YFL013C	12
YDR367W	63
YNR068C	38
YJL035C	19
YDR126W	10
YMR052W	71
YHR207C	50
YEL060C	53
YER058W	11
YPR087W	24
YMR226C	14
YIL161W	37
YIR039C	28
YKR035C	40
YGL145W	24
YDR165W	34
YDR190C	23
YGL115W	32
YPR058W	72
YMR167W	65
YNL103W	27
YNL054W	71
YLR214W	23
YMR284W	14
YBR243C	1
YPL018W	62
YJL053W	48
YOR353C	27
YGR134W	10
YKL181W	23
YMR295C	61
YIL026C	49
YOR283W	70
YFR020W	71
YHR209W	38
YLR312C	46
YMR102C	5
YFL033C	38
YPL249C-A	59
YPL052W	71
YPL106C	55
YHL038C	69
YIR008C	63
YDL191W	59
YJR080C	13
YPR029C	33
YHR176W	46
YPL153C	21
YCL008C	12
YBR233W-A	19
YGL025C	5
YKL101W	49
YPL039W	5
YOR155C	38
YDR528W	19
YOR077W	55
YNL131W	31
YJL213W	50
YGL157W	26
YGL197W	64
YDL109C	25
YDR111C	36
YCR054C	24
YFL034C-B	19
YLR008C	68
YNL003C	41
YLR352W	41
YNL307C	12
YBR193C	22
YMR152W	14
YCR040W	68
YOR329C	54
YDR295C	19
YDR007W	60
YGL130W	25
YML063W	59
YHR080C	64
YOR220W	64
YOR193W	36
YAL044C	38
YIL152W	38
YJL006C	63
YDR515W	52
YLR367W	59
YPR089W	5
YJL085W	30
YIR022W	67
YMR123W	68
YLR128W	53
YMR039C	0
YNL221C	70
YGR144W	38
YNL268W	70
YAL031C	48
YKR019C	45
YPR035W	50
YLR149C-A	66
YPL098C	13
YFL021W	1
YBR140C	54
YNR002C	46
YMR265C	37
YML119W	45
YNL064C	62
YIR030C	18
YER188W	15
YLR211C	48
YPL140C	73
YBR113W	40
YHR143W	26
YPR187W	23
YIL027C	16
YDR319C	28
YJR063W	34
YJR093C	24
YLR451W	24
YER048W-A	25
YPR158W	44
YPL016W	40
YPL179W	5
YCR035C	23
YLR376C	57
YOR099W	6
YDR276C	14
YER014W	22
YFR034C	10
YOR276W	19
YEL036C	19
YJR087W	5
YNL282W	68
YER088C	25
YML031W	19
YDL209C	68
YGL111W	56
YML038C	16
YNL152W	16
YDR311W	24
YPL155C	2
YLR454W	48
YDR018C	54
YDR017C	73
YGL193C	27
YBL081W	34
YDR167W	68
YDR128W	61
YHR178W	12
YMR092C	14
YDR281C	66
YML074C	19
YPL143W	59
YFR052W	42
YNL067W	74
YKL124W	54
YCL035C	53
YHR213W	63
YPR099C	66
YMR004W	15
YFR013W	63
YKL205W	23
YML049C	69
YKL129C	48
YPL206C	48
YPL136W	25
YMR135C	64
YAR027W	48
YDL176W	25
YMR208W	17
YPL091W	15
YJL026W	67
YDR457W	61
YCR051W	56
YGL065C	33
YCR099C	38
YGL036W	28
YNL080C	63
YPL283C	64
YHR070W	56
YMR090W	53
YMR119W	41
YDR027C	12
YGL068W	20
YHR093W	40
YJL190C	59
YPR128C	61
YBL047C	41
YLR287C	19
YBR162C	16
YLR116W	10
YOR111W	44
YKL108W	21
YMR162C	22
YEL015W	66
YMR246W	69
YER185W	25
YIL160C	53
YNL061W	34
YOR098C	24
YDR432W	1
YPL041C	26
YMR099C	54
YOR320C	21
YDL170W	65
YPL057C	58
YPL190C	73
YMR114C	64
YNL088W	21
YJR015W	16
YJL055W	14
YDL003W	21
YJR043C	19
YOR089C	28
YGR162W	23
YIL035C	59
YOL152W	7
YBL031W	30
YBL058W	42
YKL180W	59
YOR252W	56
YFR008W	48
YER186C	10
YGL046W	61
YGR283C	34
YKR009C	53
YBR149W	53
YFR024C	14
YNL163C	56
YDL001W	63
YIL116W	4
YLR159W	61
YML056C	23
YDL143W	23
YDR315C	14
YHL009C	55
YDL218W	54
YNL192W	25
YPL220W	59
YDR358W	28
YLR238W	73
YIR026C	56
YLR388W	59
YKL021C	56
YPR137W	34
YDR161W	56
YDR333C	66
YMR223W	68
YMR025W	64
YOR361C	23
YNL148C	67
YGL028C	1
YIL004C	19
YLL039C	53
YKL088W	70
YKR026C	23
YLR153C	17
YPL272C	61
YBR112C	17
YHR063C	18
YPL072W	36
YLR200W	19
YJL123C	36
YML017W	69
YNL097C	69
YGL215W	24
YLR017W	56
YFL022C	19
YGR222W	14
YMR125W	19
YOL086W-A	8
YGR040W	70
YJL051W	2
YMR115W	58
YPR104C	24
YNR024W	68
YBR255W	64
YFR028C	19
YNR026C	23
YER041W	7
YFL058W	53
YLR380W	16
YLR263W	65
YDR062W	19
YHR162W	37
YOR195W	21
YGR078C	19
YKL116C	33
YMR233W	24
YLR090W	61
YKL219W	38
YMR319C	16
YNR053C	34
YER060W-A	70
YGR038W	30
YDR051C	69
YOR389W	7
YHL023C	50
YDR462W	13
YDL129W	24
YJL212C	16
YLR030W	53
YMR160W	48
YDL014W	23
YGL191W	11
YDR084C	41
YDR173C	36
YOL077C	34
YBR016W	22
YGL125W	72
YLL001W	11
YMR071C	14
YPR149W	67
YLR274W	24
YOR359W	23
YHL010C	53
YHR033W	36
YBR055C	24
YER155C	2
YLR226W	70
YOR231W	63
YPL237W	34
YBR068C	5
YLR024C	22
YCL009C	4
YOL110W	64
YGR100W	48
YLR070C	64
YNL033W	6
YML022W	23
YHR199C	35
YOL056W	16
YCL048W	22
YBR270C	7
YNR039C	37
YDR070C	53
YMR242C	59
YCR105W	8
YDL083C	59
YEL053C	23
YHR205W	24
YMR023C	7
YHR191C	57
YGL254W	45
YPR111W	71
YKL063C	16
YOR238W	43
YPL109C	64
YMR285C	23
YDL148C	34
YCR005C	25
YOL049W	44
YML006C	24
YDL064W	68
YDR255C	64
YGL008C	1
YOL096C	48
YGL107C	0
YJR013W	60
YMR110C	48
YFR033C	11
YPR018W	19
YNL242W	48
YCL043C	51
YMR087W	41
YPR028W	14
YOR184W	50
YFL001W	34
YNL298W	70
YPL030W	34
YDR075W	56
YLR237W	55
YDR179W-A	37
YJR088C	50
YMR290C	34
YOR011W	71
YDR320C	15
YPL245W	19
YGL131C	35
YGL250W	48
YHR107C	19
YNL323W	69
YKR031C	42
YOR385W	8
YPR117W	54
YBR227C	50
YDL081C	59
YKR056W	56
YPR041W	23
YDR183W	1
YJR048W	31
YKL019W	61
YAL054C	46
YCR097W-A	68
YNL225C	21
YJR044C	14
YJL062W	15
YMR069W	56
YOR342C	23
YLR087C	47
YLL063C	35
YDL063C	34
YDL185W	8
YDR196C	14
YMR047C	33
YDL030W	24
YPL233W	65
YDR254W	69
YJR126C	54
YMR109W	15
YCR032W	64
YCR106W	45
YMR291W	67
YPR186C	70
YOR034C	5
YGR153W	25
YKL073W	30
YDR474C	28
YIR031C	18
YIL022W	0
YKL142W	64
YGL018C	58
YPR163C	23
YLR321C	66
YLL046C	7
YIL151C	73
YBR094W	69
YGR140W	19
YNR067C	43
YOR369C	74
YOL106W	26
YLR392C	11
YOR190W	43
YHR065C	34
YPR202W	1
YBR035C	14
YLR150W	52
YLR435W	34
YHR039C-A	32
YGR245C	34
YEL022W	30
YER175C	38
YDR124W	33
YFR006W	22
YJL082W	41
YGL097W	23
YKR089C	69
YLR348C	22
YJL156C	24
YER190W	64
YNL141W	23
YBR185C	13
YPR172W	53
YGR274C	45
YDR086C	30
YKL159C	7
YLR404W	15
YKL221W	54
YPL123C	28
YDL089W	57
YPR079W	38
YDL082W	59
YDL076C	14
YJL104W	0
YBR225W	54
YDR279W	63
YDL140C	1
YDL043C	24
YPL211W	34
YGL037C	28
YJR078W	7
YPL242C	2
YKL105C	28
YIL038C	66
YDL012C	19
YHR147C	13
YDL211C	16
YMR308C	23
YMR269W	56
YHR184W	70
YGR151C	23
YDR293C	28
YMR250W	53
YAR050W	27
YNR007C	64
YKL051W	26
YOR211C	36
YAR030C	5
YBL083C	70
YKL022C	10
YDR205W	25
YPL107W	7
YGR131W	17
YDL018C	35
YBR085C-A	54
YGL080W	36
YBR290W	7
YKL196C	8
YGR169C	68
YBL095W	22
YGL129C	20
YLR262C	63
YOR044W	35
YOR383C	35
YER187W	55
YER082C	56
YMR018W	67
YJL162C	70
YBR054W	54
YJL033W	56
YMR129W	24
YPL005W	67
YDR517W	35
YDR480W	49
YLL011W	34
YER156C	23
YLR061W	59
YLR147C	68
YDR113C	1
YBR031W	52
YER123W	63
YKL169C	36
YAR053W	55
YPL183C	23
YPL141C	2
YDR110W	56
YDL080C	63
YGR027C	74
YDR409W	61
YCR037C	37
YBL067C	67
YBR083W	5
YPR052C	6
YLR332W	70
YNL217W	63
YER057C	7
YOR336W	14
YER180C	24
YOR274W	37
YPR134W	64
YLL051C	65
YHL039W	34
YLR192C	16
YLL058W	8
YBR045C	54
YLR242C	68
YFL048C	50
YNL166C	19
YPL008W	66
YIL165C	38
YBR175W	18
YNL219C	33
YBL061C	37
YPL137C	55
YBL011W	0
YNL223W	64
YOL060C	64
YDR221W	22
YJR003C	23
YLR003C	56
YDR284C	41
YDR536W	46
YLR399C	17
YAR008W	21
YGL149W	0
YGL234W	1
YOL103W	66
YPR086W	70
YCR066W	73
YPL085W	1
YJR137C	29
YNR033W	11
YCR013C	51
YCR030C	41
YDR235W	19
YJR064W	68
YLR425W	28
YDL036C	56
YOR069W	52
YPL246C	36
YGL117W	4
YBR165W	24
YNL195C	54
YJL219W	22
YDR292C	19
YGR260W	0
YGR261C	16
YCR073C	25
YLR085C	25
YCR044C	51
YPL266W	34
YGL140C	18
YAL022C	18
YBR120C	13
YOR343C	46
YNL204C	24
YLR019W	71
YJL067W	67
YDR186C	71
YDL168W	36
YDR453C	54
YPR090W	33
YKL078W	56
YMR312W	56
YDL033C	10
YLL021W	21
YAL021C	24
YOL162W	54
YHR006W	7
YKL082C	34
YGR230W	22
YGL203C	55
YJL072C	16
YPR116W	52
YJL039C	66
YBR221C	11
YDL029W	41
YDL101C	49
YEL041W	28
YNL037C	11
YIL109C	6
YOR208W	7
YPL189W	26
YPL162C	45
YGR225W	28
YOL092W	23
YKL113C	21
YOL100W	64
YOR375C	16
YOR332W	44
YGR098C	2
YHR072W-A	23
YGR212W	22
YBR156C	26
YDR440W	30
YLL025W	8
YJR147W	19
YCR033W	10
YPR184W	28
YGL014W	23
YBL033C	58
YOR097C	14
YLR440C	5
YJL129C	24
YPR191W	11
YIL138C	12
YBL090W	13
YLR107W	55
YFR055W	18
YLR228C	9
YDR539W	15
YLL009C	13
YML088W	43
YBR169C	28
YDR055W	38
YGR231C	64
YKL046C	39
YPL271W	11
YKL106W	26
YDR405W	13
YCR036W	14
YPR121W	27
YBR130C	19
YGR247W	22
YPR139C	1
YJR152W	35
YML081C-A	11
YDL153C	56
YPR135W	35
YLR099W-A	17
YER045C	71
YPL248C	46
YJL001W	14
YOR019W	54
YLR378C	6
YPR155C	48
YBL107W-A	67
YGR117C	2
YOR301W	16
YMR274C	19
YML132W	22
YGR112W	11
YDR334W	36
YHR077C	24
YBR078W	43
YML024W	59
YDR192C	10
YPL257W	64
YLR387C	44
YPR008W	60
YDR393W	31
YOR249C	57
YGR108W	2
YMR267W	36
YML097C	19
YNL136W	45
YOR325W	5
YGR152C	70
YOR242C	66
YLR190W	2
YER047C	27
YDR133C	67
YOR103C	15
YGL001C	17
YLR450W	22
YDR257C	70
YPL059W	44
YDL224C	2
YML068W	64
YLR132C	50
YDR482C	37
YAL012W	16
YHR031C	66
YOR101W	23
YJL185C	53
YKL023W	48
YDR226W	52
YKL135C	22
YCL073C	57
YGL137W	6
YBR284W	22
YDL184C	74
YJL025W	24
YDL088C	10
YLL066C	64
YLR363W-A	56
YPL135W	54
YNR032C-A	26
YLR289W	13
YDR155C	67
YDL190C	41
YML067C	44
YIL099W	53
YDR516C	11
YEL067C	60
YGR015C	12
YMR231W	44
YCR024C	46
YDR403W	7
YIR029W	35
YAL041W	26
YOR271C	19
YGR137W	8
YMR204C	57
YDR198C	70
YLR122C	46
YJL070C	28
YLR023C	0
YOR164C	6
YMR127C	23
YBR152W	10
YLR174W	46
YMR124W	7
YKR003W	41
YML133C	64
YPL184C	63
YLR325C	59
YDR421W	46
YNL284C	13
YCL039W	64
YDR385W	52
YGR239C	71
YDR336W	73
YPL225W	67
YPL105C	24
YCL034W	41
YER121W	53
YJL215C	60
YKR082W	68
YPL014W	57
YPL282C	3
YOR289W	53
YOR172W	37
YDR479C	64
YOL138C	35
YER125W	5
YOL053W	11
YGR021W	13
YMR014W	56
YGL114W	35
YCR101C	41
YDR332W	60
YJR070C	23
YMR220W	33
YCR071C	20
YLR465C	40
YDR246W	22
YHL016C	28
YJR035W	54
YGR268C	46
YOL023W	20
YNL246W	6
YHR136C	62
YHR198C	48
YAR033W	57
YLR143W	23
YLR144C	35
YJR089W	45
YMR273C	25
YPL097W	13
YMR156C	46
YDL167C	34
YOL069W	2
YOR201C	0
YKL211C	72
YIL085C	66
YHR037W	46
YLR185W	59
YNL188W	16
YMR276W	42
YJL131C	11
YML104C	26
YDR498C	5
YOR035C	22
YDL133C-A	74
YDR300C	23
YKL214C	33
YOL058W	4
YLL018C	52
YDL198C	4
YGR147C	20
YOL038W	42
YBR164C	19
YOL006C	19
YOR334W	5
YDL130W-A	53
YJL127C	55
YLR417W	41
YNL162W	74
YJR136C	40
YKL132C	16
YBL106C	17
YML081W	24
YNL065W	56
YMR180C	7
YDR410C	16
YER018C	35
Q0065	47
YOR086C	14
YDL195W	6
YHR071W	71
YPR016C	56
YER102W	59
YLR329W	1
YHL049C	18
YNL331C	46
YPL009C	68
YDR197W	36
YGL189C	52
YHR150W	54
YER128W	26
YML015C	70
YOL042W	5
YCR021C	54
YBR111C	14
YPR010C	34
YMR258C	28
YMR161W	19
YDR420W	65
YPR062W	70
YLR453C	47
YPL273W	19
YLR164W	64
YNR003C	56
YLR199C	62
YCR088W	14
YFR037C	16
YOL084W	53
YFL008W	21
YJL161W	28
YDR424C	8
YOL147C	46
YDR390C	63
YMR062C	4
YPR034W	19
YGR122C-A	73
YJL148W	34
YDR529C	11
YLR438W	46
YDL060W	56
YDR104C	7
YDR323C	57
YMR085W	22
YNL011C	41
YGL079W	35
YCR063W	23
YJL012C	23
YJL181W	69
YIL069C	74
YKL157W	14
YJL188C	59
YER044C-A	71
YNL181W	21
YNR055C	10
YGL039W	39
YGR280C	56
YJL145W	19
YDR342C	13
YMR176W	61
YJL186W	5
YCR061W	38
YOR076C	33
YOR228C	48
YDL103C	15
YAR029W	26
YOR116C	56
YGR072W	68
YBR011C	51
YHR134W	71
YDL066W	38
YMR196W	28
YNR014W	55
YPL099C	46
YDR116C	20
YDR083W	34
YJL076W	23
YBL080C	11
YMR086C-A	36
YML073C	59
YKR080W	43
YOR158W	13
YLR374C	40
YGR236C	64
YKL149C	36
YDR464W	24
YMR177W	70
YLR384C	56
YHR020W	23
YFL002C	56
YOR157C	42
YHL012W	73
YGL078C	34
YHR034C	12
YDR013W	66
YFR035C	68
YOR221C	38
YBR299W	13
YLR338W	17
YOR261C	42
YBR271W	34
YER149C	19
YOR121C	57
YEL003W	66
YDL021W	28
YLR056W	17
YPL133C	58
YGL035C	5
YMR282C	31
YGR165W	20
YML120C	11
YLR270W	53
YAR068W	58
YLR356W	53
YJL005W	28
YDR325W	66
YDR239C	63
YLR294C	11
YML008C	8
YBR252W	19
YOR309C	34
YER032W	33
YBR203W	46
YPL128C	24
YMR066W	10
YLR099C	52
YGL066W	45
YNL050C	56
YER044C	8
YOR072W	54
YER105C	66
YHR174W	51
YJL132W	28
YDR162C	61
YER025W	23
YML131W	53
YKR007W	22
YKL134C	41
YDR066C	57
YOL075C	61
YBR023C	37
YGL246C	68
YKR100C	70
YHR180W	54
YAL005C	14
YMR137C	54
YNL322C	67
YLR063W	23
YGL136C	46
YGL102C	19
YNR018W	0
YEL031W	33
YKL096W-A	8
YNL326C	24
YDR445C	0
YOR243C	34
YAL023C	30
YPL219W	48
Q0017	40
YKL056C	59
YLR466W	64
YOR017W	1
YCL049C	54
YLL057C	61
YGR221C	21
YGL019W	63
YMR230W	59
YKL074C	66
YMR203W	31
YOL109W	8
YKL065C	48
YGL022W	6
YDR259C	57
YLR256W	47
YJL098W	56
YOR138C	54
YLR241W	41
YDR089W	18
YLR182W	33
YEL029C	37
YPL087W	14
YKR010C	24
YGL252C	15
YOR091W	23
YOR093C	33
YBL101C	28
YMR076C	21
YDR299W	34
YNL189W	63
YGL158W	55
YFR021W	12
YPR110C	34
YJL119C	70
YHR188C	12
YBR181C	74
YGL070C	68
YJR076C	6
YKL027W	23
YGL196W	64
YDR216W	13
YHL032C	67
YER006W	56
YOR269W	23
YDL090C	39
YGR166W	37
YGL027C	49
YHR028C	14
YBR255C-A	67
YLR183C	21
YLL008W	34
YMR122W-A	43
YDL205C	5
YBR210W	18
YMR034C	47
YNL068C	63
YGL241W	33
YLR177W	38
YPR080W	36
YMR247C	66
YOR233W	70
YJR025C	38
YLR178C	53
YLR431C	7
YER073W	62
YJL217W	46
YPL079W	59
YDR093W	16
YLR047C	35
YFR036W	68
YIL018W	59
YAR062W	63
YML057W	41
YGR177C	19
YDR146C	2
YDR006C	60
YLR176C	73
YPR144C	34
YNL230C	43
YBL016W	24
YML113W	34
YCL055W	63
YOR322C	37
YPL001W	68
YOL037C	40
YOR178C	46
YGL094C	66
YFR046C	49
YJL096W	20
YDR510W	1
YNL092W	14
YBL050W	41
YHR103W	66
YDL225W	70
YHR038W	36
YHR111W	25
YPL214C	38
YMR237W	41
YER008C	50
YGR168C	27
YEL042W	23
YDR470C	11
YOL145C	66
YIR044C	54
YHR056C	22
YPL055C	37
YFR011C	13
YGR216C	63
YKR039W	44
YBR092C	19
YPR159W	65
YKL133C	53
YJL092W	33
YBR267W	56
YML069W	15
YGR182C	31
YIL146C	7
YBR077C	25
YCR010C	67
YBR073W	21
YML106W	62
YGR295C	54
YKL045W	49
YPL117C	60
YDL226C	39
YMR266W	63
YEL076C-A	63
YFL014W	53
YLR436C	25
YDR337W	20
YPR068C	1
YLR112W	33
YDR085C	64
YMR043W	23
YGL044C	68
YGR258C	7
YHR036W	24
YHR187W	24
YOR227W	28
YNL078W	33
YHR094C	66
YHR045W	16
YHR044C	52
YHR101C	35
YBR024W	48
YJL083W	22
YDR448W	63
YOR197W	12
YLL055W	67
YMR064W	46
YER076C	35
YJL063C	13
YLR433C	5
YJL030W	33
YJL189W	59
YJR121W	11
YNL155W	42
YJL078C	1
YFL027C	45
YNL070W	0
YLR179C	16
YMR145C	13
YJL111W	19
YNL190W	43
YOR348C	46
YMR142C	59
YHR182W	24
YLL048C	73
YNL213C	0
YDR194C	0
YPL204W	70
YMR059W	68
YBL071W-A	68
YPL111W	25
YFR015C	67
YBR276C	21
YJL191W	66
YER107C	19
YOR316C	58
YNL029C	24
YPR106W	57
YOL163W	53
YFR026C	49
YOL031C	16
YLR134W	43
YNL024C	23
YHR083W	44
YGL098W	35
YMR147W	58
YGL257C	62
YJL122W	34
YDR302W	19
YDL119C	38
YER068W	37
YHR211W	27
YGL087C	7
YOR297C	68
YLR039C	42
YEL012W	46
YML105C	68
YBR180W	43
YHL024W	53
YGR086C	14
YOR010C	38
YDL053C	60
YOR382W	31
YLL012W	37
YHL048W	54
YDR287W	64
YBR195C	24
YFL017C	6
YHR219W	64
YNL107W	63
YBL051C	5
YOL025W	54
YML052W	1
YHR091C	13
YMR091C	19
YJR016C	62
YDR227W	63
YOR165W	69
YIL137C	12
YJL090C	24
YPL232W	25
YER024W	46
YML124C	16
YCL027W	12
YNR044W	40
YNL019C	6
YGL207W	42
YGR099W	1
YBR075W	24
YGL063W	70
YOL098C	68
YBR087W	30
YDR258C	64
YDR460W	5
YMR100W	47
YGL055W	22
YLR206W	28
YNL220W	71
YBR151W	48
YGR284C	14
YHR202W	53
YBR010W	32
YIL067C	44
YBR283C	59
YDR412W	23
YKL048C	37
YAL016W	41
YBL028C	23
YDL117W	70
YDR307W	41
YPL238C	66
YKL143W	56
YNL156C	48
YNL315C	13
YBR218C	33
YPL164C	28
YDL222C	67
YNL252C	20
YGR250C	46
YGR061C	16
YDL219W	16
YEL007W	2
YCL036W	68
YKR018C	64
YOR177C	22
YIL106W	2
YLR037C	7
YNL178W	74
YOR132W	41
YIL037C	38
YDR117C	19
YGR111W	48
YKR051W	41
YKL009W	34
YPR009W	70
YLR403W	24
YDR353W	0
YHL011C	34
YJL079C	11
YPR002C-A	55
YBR177C	50
YDR417C	16
YEL020C	46
YEL052W	11
YHR022C	25
YLL023C	54
YLL006W	35
YOR027W	14
YNL047C	45
YOL151W	67
YDR400W	16
YGL240W	7
YGL199C	57
YBR037C	11
YBR246W	68
YNL299W	56
YGL251C	65
YDR313C	54
YLL016W	67
YMR104C	46
YDR374C	67
YGL201C	66
YLR231C	38
YKL049C	25
YDR063W	41
YJL062W-A	13
YDR033W	73
YLL003W	45
YOR352W	48
YIL134W	0
YNL272C	33
YMR281W	15
YBR282W	20
YPL053C	18
YKL184W	63
YMR038C	66
YML011C	37
YFL005W	22
YBL005W	26
YML025C	20
YML125C	23
YHR009C	11
YLR041W	47
YDR230W	5
YFL054C	46
YPL262W	11
YOR037W	13
YLR221C	34
YNR029C	68
YMR079W	19
YLR258W	28
YHR128W	19
YDR538W	63
YLR083C	19
YBL045C	11
YKL182W	8
YDR244W	22
Q0140	60
YMR275C	18
YKL030W	24
YJR094W-A	59
YHR203C	59
YMR031C	48
YLR343W	66
YKL150W	64
YHR158C	15
YGL261C	3
YGL082W	41
YDL131W	72
YJL003W	22
YPR199C	7
YHR146W	33
YMR037C	17
YDR229W	42
YGR029W	35
YLR353W	69
YNR061C	57
YPR085C	65
YEL033W	40
YDR507C	21
YDL159W	45
YGL088W	9
YER090W	72
YGR294W	3
YDR330W	48
YAR003W	66
YPL215W	13
YMR046W-A	73
YPR145W	16
YMR132C	68
YFL030W	46
YDL007W	42
YDR022C	53
YDR003W	64
YDL110C	28
YMR229C	34
YLR076C	19
YOL028C	16
YCR042C	45
YGL206C	41
YDL058W	15
YKR052C	35
YDR034C	65
YJR049C	64
YGL232W	66
YPL060W	35
YGR278W	65
YHR092C	62
YPR022C	5
YJL204C	26
YKL007W	14
YGR156W	37
YOR287C	56
YJR056C	10
YDL229W	23
YMR053C	28
YNL211C	68
YGL236C	60
YBR080C	25
YGR203W	35
YBL026W	18
YDR346C	23
YHR138C	53
YJL206C	22
YJL089W	46
YNL159C	48
YOL012C	6
YHL035C	28
YPR046W	49
YMR272C	25
YHR099W	24
YJL124C	66
YMR181C	7
YGL002W	22
YGR070W	28
YDL072C	14
YPL046C	60
YFL020C	3
YDL084W	62
YLR318W	66
YDL223C	54
YCL029C	70
YER161C	68
YJL054W	10
YPR047W	11
YOL052C	23
YJL192C	62
YNL015W	53
YDR152W	34
YGL155W	66
YPR044C	19
YGL159W	18
YOR305W	1
YOR109W	2
YJL176C	33
YMR055C	26
YLR314C	16
YFR048W	24
YDR245W	19
YDL233W	46
YGR187C	34
YNR076W	3
YJL068C	64
YMR011W	5
YGR148C	59
YMR128W	56
YPL149W	17
YBR272C	48
YGR287C	44
YJL151C	53
YDL040C	19
YPL049C	16
YJR046W	26
YPL095C	71
YNL082W	21
YLR309C	45
YHR013C	59
YLL038C	70
YKL126W	41
YIL139C	73
YMR030W	41
YML128C	53
YPR165W	14
YLR464W	21
YKL218C	38
YNL057W	71
YLR449W	23
YHR010W	59
YNL293W	28
YJL149W	25
YOL024W	47
YDR118W	33
YLR098C	27
YDR248C	8
YML020W	41
YNL250W	7
YHL034C	14
YNL233W	37
YOL034W	39
YMR101C	60
YPL234C	44
YMR278W	38
YPL075W	62
YEL017W	12
YOL059W	63
YLR109W	14
YKL155C	58
YKL087C	13
YNR027W	70
YAR073W	23
YGR240C	51
YLR077W	11
YDR503C	52
YLR357W	68
YLL064C	3
YDR354W	50
YPL122C	66
YBL069W	66
YJR143C	30
YGL242C	44
YAL015C	7
YBR155W	34
YDR416W	24
YOR078W	56
YMR283C	70
YDL027C	64
YIL066C	7
YMR001C	2
YLR406C	59
YDR404C	63
YNL207W	56
YDL048C	58
YDR267C	19
YDL013W	55
YHR059W	20
YER120W	32
YGL180W	64
YJR074W	44
YKL112W	66
YCR057C	34
YNL202W	53
YKL192C	31
YER103W	53
YPL156C	58
YOR318C	68
YLR276C	34
YBR116C	54
YLR102C	64
YNL241C	14
YER049W	23
YOL019W	39
YBR082C	16
YDR402C	27
YIL052C	59
YOL005C	66
YIR041W	3
YLR307W	22
YDR065W	63
YPL063W	5
YOR265W	15
YLR427W	69
YPR178W	25
YJL223C	3
YBR034C	56
YDR052C	66
YPL022W	27
YDR277C	58
YOR153W	66
YMR215W	30
YBR233W	39
YDR137W	61
YCR007C	7
YGL243W	70
YLR127C	27
YJR012C	22
YLR386W	33
YGR188C	66
YDR363W-A	14
YDR159W	2
YER042W	29
YDR130C	57
YPL241C	21
YDR225W	32
YGL173C	42
YML098W	18
YPR002W	46
YOR182C	59
YOL117W	48
YER172C	24
YOR302W	5
YNL333W	46
YPL217C	56
YER094C	42
YDR297W	23
YOL114C	12
YPR188C	8
YNL254C	26
YNL094W	7
YNL214W	48
YGR082W	0
YFL026W	61
YJR067C	68
YHL046C	3
YJR065C	41
YJL116C	7
YMR314W	42
YHR081W	56
YOR179C	18
YJR138W	50
YHR215W	66
YNL321W	48
YGL023C	45
YML001W	44
YAL068C	3
YLR173W	53
YKR014C	48
YOL125W	56
YER037W	8
YGL056C	58
YDR060W	34
YNL134C	14
YOL061W	23
YAR014C	24
YGR277C	43
YIL086C	66
YAL037W	50
YBR287W	8
YCL002C	68
YIL164C	38
YNL116W	61
YGR186W	36
YBL040C	15
YOR194C	5
YBR105C	55
YHR110W	22
YGR129W	58
YLR130C	66
YKL061W	47
YDR180W	63
YGR241C	60
YLL054C	10
YGR057C	65
YOL036W	65
YGR123C	34
YGR092W	61
YDL194W	67
YER099C	10
YKR071C	68
YKR069W	29
YLR058C	43
YNL045W	14
YLR317W	35
YLR244C	23
YGR235C	46
YBR286W	14
YER138W-A	67
YDR335W	42
YIL073C	38
YDR397C	60
YOL040C	74
YGR189C	25
YDR087C	34
YIR023W	37
YNL077W	22
YLR155C	22
YLR110C	8
YDL135C	44
YDR533C	53
YKL093W	67
YDL199C	54
YNL022C	56
YDR296W	13
YFL018C	11
YGL051W	57
YHR005C-A	31
YER064C	23
YPR007C	46
YDR527W	23
YGL091C	73
YDR372C	30
YDL134C	14
YDL075W	59
YLR281C	22
YLR156W	61
YDR144C	19
YBR063C	37
YOR168W	23
YOR064C	60
YML026C	59
YBR029C	19
YCR043C	19
YKR083C	30
YGR170W	44
YJL197W	66
YIL046W	65
YBR261C	70
YHR122W	65
YLR052W	68
YMR012W	0
YPL090C	52
YLR007W	55
YBR273C	28
YJL091C	30
YKL183W	63
YLR288C	61
YBL107C	52
YMR028W	43
YAR002W	19
YOR021C	56
YDR158W	4
YJR099W	48
YLR066W	44
YKL162C-A	38
YBL008W	24
YPL275W	67
YIR010W	26
YOR046C	68
YGR213C	7
YOL027C	13
YLR247C	8
YKL110C	23
YMR021C	45
YNL316C	68
YDL174C	11
YJL222W	65
YDR177W	36
YOR180C	67
YGR149W	14
YLR203C	13
YOR241W	19
YMR126C	63
YMR075W	68
YDR495C	27
YOR040W	53
YLR022C	23
YDL210W	25
YLR370C	41
YER010C	38
YDR132C	60
YJR134C	33
YNL125C	46
YHR175W	49
YBL079W	66
YGL004C	64
YFL036W	58
YDR303C	30
YMR121C	12
YLR209C	12
YBR046C	46
YOR105W	65
YNL191W	63
YLR323C	63
YOR219C	28
YOL008W	1
YKR022C	55
YBR138C	12
YER118C	59
YJR001W	15
YGL194C	25
YBR009C	32
YLL049W	44
YER150W	67
YGR048W	42
YKL210W	14
YEL063C	65
YDR079C-A	55
YER004W	22
YPR169W	56
YOL001W	10
YCR077C	2
YHR159W	48
YOR264W	69
YNL123W	23
YPR129W	16
YJL164C	28
YFR017C	28
YBR096W	15
YHR087W	28
YOR054C	28
YLR443W	65
YLR121C	71
YBR187W	19
YBR279W	40
YDL004W	11
YMR261C	41
YHR088W	56
YDR373W	8
YCR098C	52
YDR265W	22
YKL081W	19
YOR308C	24
YBR100W	49
YLR345W	64
YOL013C	41
YLR335W	66
YJR113C	13
YEL054C	59
YGR193C	22
YLR383W	21
YLR175W	23
YDL238C	64
YPL034W	18
Q0275	60
YNR017W	0
YNL127W	22
YDL212W	16
YPR198W	71
YDL165W	63
YGL093W	15
YDL243C	7
YGR136W	25
YHR046C	68
YNL260C	37
YMR096W	22
YFR010W	42
YGL057C	5
YBR060C	30
YLR198C	23
YNL301C	19
YDR039C	8
YFR007W	36
YMR256C	11
YOR207C	56
YEL005C	48
YKL057C	62
YBL100C	58
YDR092W	43
YOR317W	41
YBR058C-A	1
YGR118W	74
YLR395C	11
YAR028W	39
YOR108W	19
YGR195W	68
YOR056C	56
YBL009W	19
YLR260W	12
YAR023C	7
YCL067C	35
YOR125C	48
YKL224C	3
YDL031W	56
YOR335C	70
YNL294C	7
YER148W	23
YBL059C-A	13
YKL033W-A	63
YDR071C	32
YDR386W	12
YDR499W	8
YNL023C	24
YHR186C	65
YLR292C	1
YOL122C	64
YPL247C	28
YDR408C	65
YNR052C	24
YDL241W	63
YOR088W	14
YNR006W	38
YNL262W	21
YOR144C	21
YGL052W	67
YPL118W	13
YAL027W	67
YMR173W-A	8
YGL210W	66
YDR320C-A	42
YDR484W	57
YDR212W	19
YPL235W	23
YNL329C	61
YGR201C	54
YKL006W	59
YJL105W	22
YKL163W	53
YKL024C	23
YKL029C	24
YGL105W	52
YDR447C	74
YPR185W	41
YDR451C	1
YER182W	46
YCL016C	24
YHR121W	6
YKL053C-A	46
YFL034C-A	23
YLR390W-A	7
YER168C	68
YGL071W	70
YER083C	25
YMR228W	31
YLR333C	59
YPL180W	45
YJR157W	9
YLR181C	44
YPR031W	63
YLR014C	56
YBR049C	33
YGR046W	46
YOR161C	14
YDL227C	19
YER019C-A	62
YOR377W	69
YFR004W	42
YJL128C	37
YDL130W	59
YKL075C	24
YBR098W	49
YIL105C	67
YOR338W	55
YOR085W	6
YKL064W	28
YAL039C	7
YAL028W	28
YIL074C	16
YHR017W	57
YOR388C	67
YIL030C	66
YIL155C	46
YDR466W	54
YDL025C	64
YDR317W	68
YDL177C	70
YJR018W	1
YNL119W	56
YFL050C	37
YPL274W	16
YNL285W	54
YCL028W	22
YBR159W	15
YKL013C	48
YJL088W	4
YMR136W	61
YOR023C	54
YPL044C	63
YHL020C	16
YIL156W	35
YOR280C	55
YBR017C	23
YJL183W	19
YGL099W	56
YHR029C	4
YLR233C	33
YMR310C	56
YPR204W	64
YKR060W	56
YOR247W	1
YDR380W	46
YHR200W	42
YGL016W	19
YDR322W	20
YDR218C	67
YBR196C	51
YJR060W	45
YOL033W	13
YKL152C	51
YNL157W	27
YOL115W	68
YLR330W	41
YGL013C	8
YJR105W	19
YOR028C	5
YNL142W	50
YBR119W	67
YBR162W-A	16
YPR043W	59
YCR003W	20
YDR368W	14
YGR075C	45
YBR260C	1
YDL173W	8
YDR078C	5
YOR270C	26
YGL219C	46
YBR235W	41
YHR169W	34
YBR245C	30
YMR116C	74
YPR112C	56
YBR136W	61
YDR160W	7
YGR033C	36
YOR090C	41
YKL141W	11
YGR205W	11
YOR275C	41
YFL034W	45
YOR372C	2
YDR021W	34
YGL211W	24
YGR121C	32
YPL191C	48
YNL044W	0
YGR161C	8
YNL149C	62
YER023W	44
YMR029C	41
YAL014C	43
YLR252W	28
YEL023C	61
YHR168W	60
YKL017C	69
YML114C	63
YBR050C	67
YOR029W	40
YER089C	72
YMR257C	13
YBR072W	53
YOR246C	19
YMR117C	62
YLR461W	3
YPL171C	7
YNL115C	64
YLR414C	25
YJL060W	44
YBR199W	41
YHR172W	30
YNL160W	28
YBR132C	46
YMR068W	64
YOR152C	54
YDR326C	37
YMR169C	54
YBR125C	69
YNL206C	19
YMR211W	63
YJR116W	33
YMR013C	66
YEL047C	6
YFR039C	15
YER067W	28
YGR199W	44
YOL045W	65
YNL056W	43
YMR077C	18
YER110C	19
YHR152W	2
YKL092C	49
YJL142C	48
YMR143W	59
YPL025C	70
YLL044W	59
YFL041W	67
YER146W	19
YDR096W	67
YBL039C	34
YKL090W	65
YLR412W	68
YDR275W	67
YPL230W	46
YCR009C	41
YDR441C	56
YJL141C	48
YDR391C	38
YHR127W	30
YDL182W	55
YLL026W	64
YJL165C	47
YOL159C-A	25
YLR123C	46
YLR407W	56
YPL188W	61
YCL051W	57
YER095W	61
YNL106C	44
YGR159C	34
YAR035W	46
YOR020C	11
YOR143C	19
YJL126W	27
YNL302C	59
YBL019W	64
YBL057C	30
YBR042C	19
YLR040C	16
YJL061W	19
YNL076W	37
YKL120W	19
YNL084C	12
YPR023C	67
YGL058W	37
YAR020C	3
YHR139C	53
YBR157C	58
YML029W	8
YIL147C	73
YLR265C	14
YNL224C	73
YLR137W	8
YJR040W	44
YBR302C	22
YMR032W	2
YHR014W	71
YOR033C	19
YLL067C	64
YDR099W	48
YBR117C	54
YER142C	64
YEL050C	13
YEL048C	19
YML079W	53
YDL054C	46
YAR044W	67
YLL027W	61
YPL202C	37
YIR016W	38
YOL065C	48
YLR397C	56
YPR162C	37
YKR015C	22
YDL068W	9
YDR298C	11
YPR203W	18
YEL068C	25
YBR044C	11
YJR010W	29
YPL199C	19
YJR054W	70
YDR108W	39
YNR056C	60
YPR083W	61
YLR201C	48
YPR020W	31
YDR142C	58
YLR048W	59
YCL033C	53
YDR530C	46
YPL031C	48
YFR009W	23
YOR303W	27
YPR051W	30
YDR098C	74
YJL044C	60
YEL013W	41
YGL171W	56
YOR244W	60
YOR286W	13
YGR215W	31
YPL132W	36
YDR419W	24
YOR015W	41
YBR239C	37
YOL143C	33
YHR008C	53
YPR042C	5
YBL059W	13
YGL227W	48
YPR063C	16
YDR182W	41
YOL016C	28
YOR107W	55
YNL007C	14
YML094W	68
YLR151C	64
YMR200W	71
YJL166W	11
YEL049W	3
YER093C-A	13
YGR097W	71
YNL183C	44
YDR438W	10
YGL081W	53
YGL113W	63
YHR165C	10
YDR200C	41
YKL054C	66
YDR316W	20
YFR030W	29
YLR036C	63
YLR405W	23
YGR237C	48
YDR036C	46
YDR289C	5
YLR336C	56
YLR284C	64
YIL014C-A	7
YBR249C	62
YDR237W	20
YPL146C	56
YKL095W	60
YML076C	65
YDR172W	34
YNR037C	13
YNL305C	48
YHR001W	48
YMR157C	13
YGR160W	56
YML103C	66
YAR071W	66
YKL016C	11
YBR230C	46
YPR171W	37
YPL138C	47
YDL099W	36
YDL161W	12
YML096W	34
YDR477W	36
YJR144W	36
YDL142C	48
YPL150W	64
YNL002C	34
YDL010W	25
YLR432W	23
YNL009W	46
YDR217C	24
YOR007C	67
YPL103C	31
YJL101C	69
YGL096W	7
YOL158C	45
YNL087W	66
YEL020W-A	31
YOR122C	14
YDL179W	2
YGL198W	48
YLR452C	63
YBR183W	48
YDR392W	22
YLR018C	68
YDR407C	33
YOR340C	34
YOR200W	0
YNR075W	63
YLR457C	21
YGR282C	38
YDL193W	41
YMR222C	5
YBL023C	37
YMR056C	53
YDR312W	56
YPR091C	41
YOR036W	64
YNL144C	67
YMR112C	18
YJL158C	8
YLR373C	33
YER060W	18
YFL028C	72
YJL109C	34
YOR234C	59
YKR065C	11
YGR106C	44
YDR543C	40
YOL088C	36
YML117W	28
YJL106W	46
YMR197C	28
YIL010W	8
YNR066C	18
YER026C	44
YEL030W	38
YOR272W	34
YHL026C	68
YHL036W	29
YJR125C	48
YLR021W	39
YPL083C	66
YNR057C	71
YOL142W	56
YOR061W	70
YHR117W	62
YDL121C	56
YOL090W	49
YOR367W	8
YGR049W	17
YDR520C	10
YML051W	66
YIR018W	35
YML121W	7
YJR086W	57
YKR029C	45
YNL113W	34
YCL014W	66
YGL038C	8
YMR225C	31
YGR232W	14
YFL045C	59
YMR166C	31
YNR035C	41
YMR003W	6
YCR023C	35
YDL115C	64
YJR039W	54
YGL247W	24
YJL155C	64
YNL151C	23
YLL033W	70
YOR366W	27
YDL006W	30
YKL100C	48
YNL086W	27
YLR113W	16
YLL015W	64
YOL127W	59
YML085C	6
YKL098W	61
YDR434W	15
YOR206W	34
YMR078C	21
YBR288C	66
YNL140C	10
YDR463W	10
YOL082W	28
YDL108W	68
YEL072W	18
YMR221C	18
YHR115C	66
YKR006C	13
YDL139C	38
YGR110W	46
YLR424W	66
YER021W	42
YIR011C	70
YDL185C-A	43
YJL008C	19
YMR140W	48
YOR148C	7
YDL230W	48
YKR067W	11
YJL049W	69
YGR181W	31
YOR306C	55
YMR120C	8
YBL037W	41
YDL051W	34
YBR160W	73
YNL270C	46
YCR004C	53
YMR150C	11
YNL271C	54
YDR012W	52
YFR042W	15
YHR030C	25
YMR008C	8
YDR056C	57
YDR150W	67
YDL065C	36
YCR028C-A	36
YEL064C	25
YOR081C	2
YLR346C	22
YLR072W	41
YGR246C	39
YAL032C	58
YBR251W	20
YDR034C-A	40
YPL173W	20
YPL145C	66
YGR060W	17
YGR174C	46
YNL232W	56
YDR361C	56
YOR004W	34
YLR354C	51
YOL032W	48
YLR442C	12
YDL203C	24
YKR005C	71
YMR179W	21
YFL055W	46
YGL010W	48
YDR519W	8
YKR066C	64
YNL279W	38
YGL230C	55
YAL056W	35
YBR106W	23
YIR009W	43
YHR074W	41
YIL071C	64
YOL124C	34
YDL017W	63
YDR166C	61
YGL156W	53
YPR067W	11
YPR122W	73
YNL257C	42
YIL162W	58
YOL029C	16
YDR273W	47
YKR084C	39
YMR270C	19
YOL041C	34
YKL170W	20
YDR494W	13
YBR097W	41
YIL114C	26
YDR496C	34
YJL002C	30
YMR321C	19
YNL216W	66
YLR368W	10
YEL039C	28
YLR261C	32
YDR059C	53
YNL052W	11
YMR304W	11
YML007W	67
YLR229C	1
YIL133C	59
YDR143C	24
YIL077C	64
YNR032W	35
YIL003W	63
YNL185C	20
YGR206W	57
YDR046C	63
YOR045W	31
YNL091W	55
YOL044W	22
YKL156W	19
YER129W	73
YCR093W	40
YER053C	28
YCR075C	41
YIL013C	7
YDR478W	68
YBR202W	63
YNR019W	17
YDL086W	14
YDR449C	34
YIL065C	64
YGR183C	46
YAL036C	23
YDR450W	59
YDR514C	23
YGR208W	16
YAL026C	39
YPL157W	68
YLR351C	44
YDR079W	46
YKR047W	68
YOR005C	7
YOR071C	37
YHR089C	34
YLR166C	15
YHR179W	70
YPR048W	23
YOR213C	70
YKR044W	70
YJR069C	19
YPR161C	68
YHR196W	34
YGL186C	50
YDL055C	52
YDR504C	64
YCL017C	25
YDR088C	60
YDL171C	50
YML090W	9
YOL111C	8
YGR101W	13
YLR371W	41
YGL030W	74
YDR443C	22
YER130C	37
YMR192W	63
YER164W	40
YPL064C	57
YLR249W	0
YDL147W	42
YJR092W	2
YDR019C	38
YKL043W	5
YGL075C	33
YDR414C	19
YJR130C	38
YLL014W	16
YKL190W	8
YBR026C	53
YER174C	18
YKL076C	24
YDR497C	8
YLR213C	27
YOR262W	63
YMR155W	48
YML126C	12
YGR081C	34
YJR058C	12
YPR013C	26
YMR277W	19
YDR436W	48
YPL002C	35
YDL008W	43
YLR145W	68
YER127W	34
YDL207W	33
YBR145W	4
YGL100W	15
YPL012W	56
YDR153C	24
YDR366C	55
YOL154W	55
YKL140W	41
YIR024C	13
YPL254W	23
YMR315W	14
YKR091W	38
YJR034W	11
YDR468C	44
YLR362W	22
YDL206W	28
YDR252W	25
YOR357C	15
YPL110C	54
YKR028W	26
YJR139C	44
YMR153W	70
YHL007C	23
YPL116W	12
YNL292W	23
YJL071W	4
YGR163W	73
YJL225C	64
YBR190W	66
YGR073C	45
YDR379C-A	46
YCR017C	22
YLR196W	34
YBR109C	8
YFR027W	21
YGR065C	0
YMR325W	3
YER169W	55
YFL037W	6
YOR260W	19
YNL100W	11
YIL062C	41
YBL108C-A	3
YBR153W	70
YGL220W	68
YKL174C	26
YER171W	68
YNL277W	29
YDR541C	18
YDR263C	1
YOL021C	56
YDR505C	22
YAL003W	74
YML092C	42
YKL164C	8
YGR095C	56
YIR006C	25
YJL087C	56
YGL127C	66
YGR172C	59
YOR062C	43
YLR271W	64
YPL038W	68
YER124C	25
YBR001C	64
YJL221C	64
YOR080W	26
YPR004C	8
YJR149W	46
YDR091C	23
YKR079C	56
YJL048C	28
YJR057W	21
YPL267W	21
YLR142W	7
YKL117W	14
YHR062C	34
YJL074C	21
YLR074C	56
YER056C-A	59
YPR073C	55
YCL005W	24
YBR008C	25
YIL111W	8
YJR161C	41
YHR015W	37
YDR309C	70
YNL288W	66
YPL028W	42
YJL159W	35
YFR051C	6
YOL089C	58
YBL024W	23
YLR462W	18
YHR114W	28
YEL009C	46
YCR086W	62
YMR210W	48
YMR168C	45
YPR082C	35
YNL085W	66
YDR081C	24
YPL226W	23
YGR090W	23
YCL056C	47
YFL039C	67
YKR092C	70
YOR391C	53
YPL045W	39
YPL065W	36
YKR012C	36
YLR082C	45
YEL034W	36
YDR171W	28
YJR142W	41
YGL169W	56
YIL135C	25
YOL139C	23
YKL018C-A	67
YGL121C	53
YIL130W	24
YCL007C	1
YER104W	12
YPR100W	11
YLR369W	64
YPR101W	63
YOL112W	25
YML087C	13
YGR288W	46
YMR214W	16
YPR024W	31
YMR113W	50
YNL267W	33
YBR039W	11
YGR096W	24
YOR326W	30
YDR010C	35
YKL199C	43
YLR094C	27
YGR286C	0
YNL193W	25
YJL147C	22
YOR237W	17
YPL032C	19
YAR015W	71
YDR364C	24
YER001W	1
YNL124W	34
YLR420W	30
YJL178C	66
YML009W-B	66
YPR176C	50
YOR304C-A	30
YPL069C	66
YBR240C	53
YMR089C	11
YNR048W	23
YDR168W	41
YOR141C	22
YPR119W	66
YKR025W	56
YAL008W	53
YFR002W	23
YML004C	54
YLR186W	34
YKL144C	56
YDR004W	18
YPL006W	64
YPL213W	18
YGR210C	19
YGL190C	36
YPL252C	37
YGL064C	70
YDR270W	35
YPR127W	53
YPL094C	62
YER075C	24
YGL106W	6
YBR198C	66
YIR003W	48
YGL185C	35
YLR202C	36
YOR176W	41
YER072W	52
YHR149C	19
YJL115W	30
YMR213W	10
YDR240C	24
YOR212W	19
YIL041W	22
YHR190W	22
YGR254W	51
YML099C	65
YOR137C	14
YBR036C	64
YJR156C	53
YHR155W	47
YEL055C	23
YIL091C	34
YML058W	2
YDL175C	10
YOR115C	16
YFL029C	14
YIL011W	40
YOL007C	16
YBL001C	53
YDL035C	7
YBR084W	23
YCR094W	12
YDR238C	6
YPL255W	19
YLR278C	55
YNL231C	16
YDL146W	57
YIL031W	73
YLR285W	19
YFR023W	7
YBR228W	65
YBR262C	13
YER179W	53
YPL280W	53
YNL168C	14
YKL188C	64
YPL112C	23
YLL028W	25
YKR081C	34
YLR086W	1
YLR084C	19
YBR200W	27
YJL023C	7
YGL003C	47
YBR108W	28
YDL045C	22
YDR163W	35
YOR129C	66
YDR164C	45
YLR291C	66
YKR030W	37
YER070W	21
YBR126C	28
YML108W	56
YGR214W	59
YOL013W-B	9
YDL100C	32
YNL036W	67
YNR012W	34
YGR020C	1
YDR262W	54
YPR053C	45
YGR074W	68
YOR266W	20
YOR136W	11
YGR191W	70
YNL229C	0
YGR223C	22
YHL031C	8
YDL122W	34
YLR441C	59
YHR183W	17
YDL181W	46
YLR418C	62
YJR002W	56
YIR025W	22
YOR267C	27
YNR045W	46
YGL148W	16
YBR173C	67
YCL040W	46
YGL133W	8
YDL105W	21
YNL258C	33
YBR194W	60
YLR106C	56
YGL202W	72
YDL125C	42
YPL147W	67
YJR022W	33
YBL041W	42
YDR475C	38
YKL171W	22
YDL248W	38
YNL020C	43
YCL050C	19
YHR075C	28
YIL115C	5
YLR224W	70
YBL082C	70
YDR500C	59
YER051W	61
YBL065W	54
YPL249C	14
YGL053W	28
YNL110C	34
YOL116W	35
YML030W	11
YPR093C	7
YDR486C	64
YLR283W	48
YJR111C	70
YDR454C	19
YBR028C	5
YNR051C	19
YPL093W	34
YPL265W	22
YOL087C	48
YNL199C	24
YLR347C	66
YPL168W	35
YJR141W	19
YHR218W	57
YNL197C	66
YKR074W	73
YFL068W	40
YIL120W	7
YIL169C	67
YKR020W	22
YER093C	27
YDL145C	30
YMR264W	44
YLR304C	11
YDL166C	68
YDR080W	35
YLL036C	68
YOR016C	63
YJL187C	21
YIR001C	27
YJR024C	68
YEL062W	38
YPR108W	42
YPR168W	9
YNR004W	68
YNL025C	35
YGL200C	32
YNL300W	1
YPL061W	36
YJR091C	41
YBR004C	37
YOR038C	30
YAL009W	57
YER091C	1
YBR214W	28
YLR195C	16
YDR106W	69
YPR193C	53
YLR163C	35
YMR299C	1
YML012W	32
YOR059C	38
YBL055C	56
YNL027W	45
YMR171C	73
YBR093C	62
YLR355C	62
YPR011C	46
YER034W	26
YPL159C	71
YJL154C	41
YDR508C	0
YGR011W	22
YGR175C	17
YJL029C	69
YOR051C	34
YDR490C	64
YNL187W	55
YBR298C	58
YDR103W	24
YPL088W	71
YOR150W	11
YIL047C	70
YMR190C	33
Q0110	60
YLR262C-A	68
YBR059C	41
YDR025W	59
YGR067C	67
YNL132W	34
YBL088C	54
YIL021W	68
YDR339C	56
YNL026W	41
YKR086W	24
YCR090C	68
YJL144W	28
YGR289C	58
YER085C	27
YBR258C	25
YMR195W	4
YIL084C	55
YLR006C	41
YPR061C	46
YKL189W	67
YDL046W	53
YIL158W	30
YMR209C	66
YBL078C	53
YBR297W	58
YLR154C	30
YHR151C	24
YOL136C	70
YMR074C	30
YJL143W	31
YDL104C	46
YNR001C	11
YPL263C	19
YJR129C	56
YJR095W	46
YAL047C	26
YCL044C	43
YNR031C	41
YNL099C	26
YPR132W	74
YPR142C	68
YGR127W	54
YGL009C	73
YML095C	25
YLR027C	11
YKR068C	69
YDL183C	7
YKR078W	36
YPL186C	53
YBL072C	59
YGR275W	1
YIL048W	2
YMR262W	48
YDL239C	48
YBR148W	61
YPL278C	7
YJL138C	52
YOR250C	39
YNL175C	34
YOR327C	12
YJL045W	53
YGR084C	20
YDR232W	60
YBR065C	37
YPL152W	48
YDR135C	44
YKL151C	28
YEL021W	19
YER141W	11
YBR090C	8
YNL330C	26
YCL047C	25
YPR015C	7
YOR095C	68
YPL013C	13
YGR124W	52
YLR223C	56
YDR452W	14
YOR186W	67
YDL189W	16
YMR172W	10
YEL001C	16
YMR201C	22
YDR324C	34
YER062C	55
YPR025C	2
YDL118W	9
YNL008C	41
YBL091C-A	14
YIL040W	19
YCR087C-A	34
YDR387C	28
YNL244C	19
YBR172C	24
YIL177C	64
YNR042W	5
YDR034W-B	67
YBR033W	46
YGR204W	50
YOR215C	64
YHR007C	17
YGR150C	5
YJL059W	28
YOR259C	42
YJR102C	41
YGL020C	59
YIL061C	43
YPL129W	30
YOR323C	16
YJL069C	34
YDR492W	5
YML016C	71
YLR009W	34
YOL057W	44
YJL168C	23
YLR096W	24
YMR316C-A	47
YJL036W	48
YOR284W	49
YNL336W	41
YKL172W	34
YPL201C	67
YER116C	53
YDR415C	44
YNL286W	57
YBR201W	44
YMR253C	64
YLR299W	8
YDL240W	2
YPL224C	35
YDR351W	71
YPR133C	62
YBR015C	62
YJR030C	21
YIL043C	62
YPR164W	12
YBR291C	55
YKL160W	31
YBR003W	11
YKL077W	63
YDR280W	23
YPL096W	48
YMR244C-A	67
YHR143W-A	68
YJL094C	8
YML010W	16
YBR104W	16
YOR258W	60
YHR027C	42
YLL050C	14
YPL174C	71
YPL125W	5
YOR008C	61
YOR106W	63
YJL066C	64
YBL092W	74
YCR002C	49
YGR034W	59
YKL015W	17
YDR418W	74
YML071C	39
YOR374W	46
YPL169C	23
YHL029C	24
YDR090C	18
YDR534C	67
YBR095C	63
YDL087C	45
YOL165C	22
YNL014W	53
YBR259W	26
YIL173W	65
YOL003C	12
YNR040W	13
YDR272W	64
YER106W	7
YPL101W	24
YDR384C	67
YPR065W	10
YLR193C	46
YLR310C	5
YPR160W	28
YHR106W	64
YBR141C	34
YDL236W	18
YGL101W	16
YJR106W	38
YOR310C	34
YDR222W	66
YCR076C	53
YNL053W	65
YBL032W	6
YPR055W	15
YDR038C	70
YHR148W	34
YPR105C	6
YGR145W	56
YGR155W	70
YAL046C	13
YKR101W	27
YIL036W	48
YGL095C	35
YNL253W	44
YNL101W	18
YGR026W	41
YNL308C	56
YNL275W	24
YLR207W	41
YNL328C	35
YLR303W	29
YHR123W	18
YHR167W	23
YGL134W	67
YBR293W	65
YPR005C	28
YNL104C	46
YHR035W	69
YMR218C	63
YPR154W	47
YER162C	53
YGL187C	11
YCR048W	26
YIL068C	44
YBR088C	21
YDR107C	22
YGL205W	46
YDL151C	9
YNL311C	72
YMR198W	16
YJR124C	23
YNL317W	61
YOL137W	68
YFR045W	64
YGR276C	24
YLR446W	28
YIL093C	20
YGR220C	20
YMR206W	67
YDR154C	67
YPR033C	23
YHR204W	19
YER016W	30
YOR134W	54
YLR068W	56
YER166W	61
YHR025W	16
YCL063W	16
YDR282C	46
YOR058C	2
YCL032W	22
YIL007C	48
YJR135C	37
YGL060W	33
YLR051C	56
YLR390W	46
YLR191W	25
YGL167C	62
YEL066W	22
YAL059W	56
YGR194C	28
YMR216C	10
YOR147W	58
YMR083W	46
YBR161W	69
YKL104C	25
YLR015W	63
YGL119W	58
YOL155C	67
YKL062W	25
YDL133W	42
YNL095C	70
YNL051W	36
YCL064C	25
YOR070C	48
YOR133W	52
YPR138C	16
YJL205C	67
YOL133W	15
YIL127C	34
YDR077W	53
YER002W	56
YJL100W	35
YHR039C	17
YPL222W	53
YHR135C	41
YOR299W	37
YJL112W	69
YLR129W	34
YDR026C	70
YIL097W	64
YLR162W	57
YLR350W	69
YPR143W	56
YEL032W	24
YIL053W	62
YKL197C	22
YCR039C	35
YMR058W	0
YPR182W	58
YOL135C	37
YKR048C	10
YLR340W	52
YJL173C	15
YER048C	22
YOR315W	19
YBR192W	68
YNL035C	70
YBL056W	31
YMR236W	26
YDR398W	34
YGL059W	64
YHR129C	39
YGL174W	37
YGR044C	28
YLR152C	46
YDR097C	21
YER011W	8
YBR052C	48
YJL118W	1
YLR108C	33
YLL024C	32
YGR017W	62
YEL027W	52
YBR289W	12
YML023C	68
YPR057W	18
YNL186W	24
YMR306W	53
YNL079C	14
YOL093W	23
YLR239C	11
YHL002W	54
YMR309C	23
YJL125C	34
YHR108W	30
YER040W	45
YKL194C	11
YHR041C	19
YOL039W	59
YOL132W	71
YJL137C	64
YLR046C	38
YER115C	5
YPR157W	45
YPR066W	22
YHR164C	61
YDL015C	57
YOR139C	40
YCR067C	12
YIL128W	68
YHR078W	27
YGL151W	33
YGR087C	7
YGR266W	12
YMR188C	20
YLR246W	25
YPR056W	63
YML082W	56
YDL126C	14
YDR377W	11
YPL043W	34
YDL164C	21
YFL038C	14
YMR313C	61
YEL044W	45
YDR074W	28
YKL003C	20
YOR117W	42
YJL180C	11
YDR169C	41
YEL043W	5
YBL015W	46
YKR021W	35
YDL132W	42
YOR288C	32
YOR031W	27
YOR114W	49
YJL014W	19
YPR050C	40
YKR050W	47
YLL053C	24
YBR207W	60
YJL056C	39
YMR186W	42
YHR049W	23
YGR167W	48
YNL147W	68
YDR370C	66
YJL097W	1
YKL187C	67
YKL020C	47
YPL067C	25
YKL206C	32
YNL112W	34
YIL154C	41
YIL014W	5
YLL032C	2
YLR287C-A	59
YOR074C	21
YDR356W	33
YBR058C	10
YOL146W	1
YDL113C	48
YIL107C	64
YOR175C	44
YIL145C	70
YER140W	37
YBR211C	57
YDR444W	5
YLR004C	7
YOR222W	16
YGR103W	34
YBR103W	41
YIL143C	24
YNL255C	23
YKL153W	52
YLR091W	5
YLR158C	22
YIL118W	70
YKL089W	18
YJR083C	12
YGL049C	16
YNL058C	43
YIL044C	16
YFR043C	36
YHR170W	56
YOR396W	64
YDR131C	35
YKL203C	22
YOR217W	66
YBL102W	48
YHR055C	67
YLR320W	24
YLR216C	14
YHL015W	59
YFL023W	56
YGR171C	36
YOR381W	27
YNR011C	24
YDR234W	68
YIL175W	54
YNL177C	13
YPL081W	19
YJL017W	47
Q0060	60
YOR181W	41
YOR328W	54
YEL046C	70
YGL195W	19
YPR179C	25
YGR285C	16
YMR251W-A	28
YLR029C	52
YOR230W	64
YLR456W	57
YMR081C	67
YGR094W	59
YPL029W	0
YLR050C	17
YOR223W	48
YKL006C-A	33
YAL034W-A	30
YHR032W	24
YBL029W	1
YNL006W	22
YKL028W	26
YGR001C	68
YKR054C	61
YAL029C	23
YDR049W	24
YBR220C	23
YLL002W	30
YDL002C	73
YNL071W	14
YDR236C	38
YNR030W	32
YMR035W	67
YCR072C	34
YGR056W	24
YKL185W	8
YBR204C	48
YIL033C	64
YEL073C	18
YJR127C	25
YBL099W	11
YER059W	41
YLR034C	35
YDR122W	28
YKL215C	41
YKR013W	55
YBL111C	57
YAL019W	23
YDL070W	8
YIL002C	41
YLR393W	58
YLR389C	6
YAR007C	49
YNL081C	13
YPL151C	24
YKL114C	68
YPR140W	46
YJL031C	15
YOL107W	15
YIL034C	14
YLR139C	0
YGR135W	42
YDL096C	9
YIL078W	19
YKR043C	16
YER158C	71
YML034W	69
YKL096W	67
YER143W	48
YJR132W	23
YOR030W	71
YBL076C	19
YJR014W	68
YDR064W	59
YML101C	12
YDR115W	20
YBL066C	61
YDR243C	70
YDL247W	47
YFL060C	35
YGR143W	54
YLR031W	53
YAL058W	10
YNL295W	45
YHR118C	68
YNL320W	15
YDR040C	25
YBL038W	11
YER086W	70
YOR362C	42
YHR137W	46
YML048W	58
YBL096C	66
YIL001W	66
YLR319C	63
YJR041C	34
YPL077C	50
YBR150C	22
YBR205W	62
YCL059C	34
YBR061C	56
YHL047C	27
YGL231C	25
YBL017C	41
YNL121C	69
YHL028W	8
YKR041W	55
YDL216C	48
YDL208W	34
YCR025C	66
YDR127W	72
YKL085W	11
YML080W	34
YDR348C	16
YER077C	65
YER005W	37
YDL038C	24
YBR062C	53
YIR038C	53
YLR312W-A	20
YDR493W	20
YBR188C	12
YIR017C	38
YDR381W	32
YDL091C	48
YPL264C	38
YLL022C	62
YEL018W	68
YER078C	39
YOL067C	55
YHR130C	47
YBR215W	73
YKR017C	67
YDR456W	48
YHL027W	71
YPR032W	45
YJL041W	40
YOR018W	54
YML107C	61
YBL052C	33
YBL085W	6
YPL144W	68
YML027W	16
YLR298C	18
YOL017W	21
YKL005C	47
YDR121W	68
YDR191W	63
YMR144W	30
YDR030C	54
YHR201C	19
YNL117W	46
YMR174C	53
YPL120W	12
YDL197C	12
YJR020W	2
YNL194C	54
YJR098C	45
YBR158W	63
YAL062W	7
YNL313C	34
YMR191W	46
YDR016C	12
YJR077C	13
YKR096W	28
YMR163C	2
YML041C	73
YBR002C	23
YPL015C	61
YHR082C	28
YPL228W	69
YDL235C	37
YLR234W	21
YFL049W	27
YLR016C	68
YKR087C	45
YPR107C	57
YML035C	60
YCR068W	46
YHR105W	22
YEL065W	31
YOR304W	24
YMR131C	34
YJR123W	52
YBL036C	68
Q0055	60
YLR105C	63
YIR027C	25
YDR105C	48
YOL148C	26
YOR277C	19
YAR060C	58
YPL163C	49
YPR081C	48
YGL226W	22
YGR259C	61
YOR257W	47
YIL070C	13
YGL209W	66
YPR167C	72
YDR365C	34
YHR002W	46
YMR040W	67
YLR170C	44
YNR041C	13
YMR044W	16
YAL067C	29
YGL175C	43
YBR137W	14
YOL119C	35
YJL130C	70
YDR264C	49
YCR020W-B	70
YPL197C	19
YNL303W	49
YOR151C	68
YGR138C	37
YGR042W	61
YNL297C	41
YOL072W	27
YDR207C	66
YCL037C	23
YOR373W	1
YLR328W	16
YOR358W	46
YBR070C	21
YER189W	18
YOR160W	73
YDL192W	52
YDR184C	34
YJL010C	34
YEL051W	44
YLR133W	44
YJL200C	23
YOR253W	19
YLR381W	43
YOL123W	66
YPL223C	54
YDL157C	62
YBR301W	3
YNL209W	19
YKL080W	18
YOR356W	11
YPR097W	69
YOR006C	23
Q0045	60
YOR393W	53
YLR069C	13
YGR109C	21
YNL130C	15
YDR525W-A	46
YGR071C	73
YLR245C	71
YNL046W	39
YIL172C	64
YMR002W	13
YKL060C	51
YDL180W	35
YGR089W	24
YDL214C	54
YLR138W	71
YIR035C	26
Q0105	60
YAR002C-A	30
YHR079C	27
YPL011C	63
YDL138W	65
YCR095C	5
YLR212C	21
YJL140W	69
YKR093W	25
YMR317W	40
YOL062C	44
YPL181W	58
YAL043C	63
YKL193C	48
YBR170C	42
YHL044W	54
YOR307C	73
YDL116W	24
YPL176C	71
YIR002C	25
YPL047W	37
YKR023W	16
YGR105W	16
YPL040C	60
YLL060C	7
YOR209C	23
YER136W	41
YJR011C	25
YDR481C	38
YOR043W	25
YKR035W-A	12
YOR127W	37
YOR313C	2
YGL085W	37
YFL066C	73
Q0250	60
YBR182C	71
YHR072W	17
YLR324W	48
YKR038C	66
YJR160C	47
YLR097C	38
YBR085W	19
YGR120C	63
YHR064C	23
YMR219W	28
YDR201W	12
YLR194C	8
YPL056C	40
YDR304C	44
YKL115C	9
YJR148W	46
YNL215W	67
YOR294W	56
YMR103C	46
YJR021C	8
YOL166C	63
YCR060W	70
YGR158C	56
YDR345C	66
YOR079C	18
YDR285W	61
YMR118C	54
YDR458C	61
YMR296C	19
YDL106C	35
YJR082C	65
YAL033W	68
YOL022C	56
YNL038W	19
YPR069C	74
YDL228C	19
YPR026W	53
YJL203W	63
YFL067W	1
YDR035W	72
YMR260C	59
YNL182C	34
YJL134W	30
YGR047C	12
YMR006C	69
YLR073C	23
YLR043C	67
YPL108W	56
YPL277C	7
YHR097C	28
YLR377C	46
YDL095W	30
YER176W	70
YOR100C	46
YDR181C	12
YOL130W	24
YNL314W	35
YGL160W	48
YBR234C	41
YLR448W	59
YLR222C	34
YPR156C	26
YLR100W	17
YKL079W	71
YIL153W	46
YBR163W	16
YLR305C	66
YJR051W	46
YHR133C	19
YHR051W	11
YDR043C	7
YLR430W	24
YER098W	46
YOR380W	7
YDR501W	30
YER028C	26
YLR117C	47
YBL054W	56
YMR263W	62
YGL017W	5
YHR109W	60
YPR196W	45
YDL202W	20
YPL058C	70
YNR038W	56
YAL004W	36
YHR113W	48
YLR157C	22
YFL046W	38
YJL102W	11
YLR463C	40
YJL103C	46
YJR007W	23
YER111C	69
YBR278W	39
YNL150W	19
YHR084W	24
YOR149C	45
YOR203W	26
YJR052W	7
YPR036W	51
YPR030W	46
YOR344C	62
YBR143C	23
YBR253W	25
YCL026C-B	31
YER113C	66
YOR022C	64
YIL055C	53
YOR346W	19
YML116W-A	41
YKL038W	28
YFL016C	48
YCL068C	9
YNL256W	19
YGR128C	34
YDR469W	16
YLR089C	35
YMR106C	44
YKL040C	45
YNR034W	54
YPL209C	21
YGL005C	35
YGR036C	63
YDL069C	50
YJR073C	14
YOR202W	72
YIL121W	18
YLR095C	66
YJL194W	66
YDL019C	41
YJL209W	24
YER159C	47
YMR184W	8
YKR040C	5
YBL103C	45
YNL001W	68
YPL084W	28
YMR305C	0
YER119C	48
YDR327W	67
YER126C	34
YMR005W	70
YER019W	39
YGR227W	63
YJL107C	37
YNR049C	60
YMR042W	70
YLR215C	56
YOL121C	74
YDL213C	56
YLR093C	64
YHR116W	13
YPR115W	28
YML070W	14
YIL064W	68
YCR065W	66
YJL065C	24
YLR118C	38
YBR242W	68
